Arbitros/arbitro_2/Arbitro_2.vcd
$date
	Fri Nov 26 20:38:48 2021
$end
$version
	Icarus Verilog
$end
$timescale
	1ns
$end
$scope module BUF $end
$var wire 1 ! A $end
$var wire 1 " Y $end
$upscope $end
$scope module BancoPruebas $end
$var wire 1 # pop $end
$var wire 1 $ push0 $end
$var wire 1 % push1 $end
$var wire 1 & push2 $end
$var wire 1 ' push3 $end
$var wire 4 ( state [3:0] $end
$var wire 1 ) empty $end
$var wire 1 * clk $end
$var wire 1 + almost_full3 $end
$var wire 1 , almost_full2 $end
$var wire 1 - almost_full1 $end
$var wire 1 . almost_full0 $end
$scope module Probador $end
$var wire 1 # pop $end
$var wire 1 $ push0 $end
$var wire 1 % push1 $end
$var wire 1 & push2 $end
$var wire 1 ' push3 $end
$var reg 1 . almost_full0 $end
$var reg 1 - almost_full1 $end
$var reg 1 , almost_full2 $end
$var reg 1 + almost_full3 $end
$var reg 1 * clk $end
$var reg 1 ) empty $end
$var reg 4 / state [3:0] $end
$upscope $end
$scope module arbitro_2_conductual $end
$var wire 1 . almost_full0 $end
$var wire 1 - almost_full1 $end
$var wire 1 , almost_full2 $end
$var wire 1 + almost_full3 $end
$var wire 1 * clk $end
$var wire 1 ) empty $end
$var wire 4 0 state [3:0] $end
$var reg 2 1 contador [1:0] $end
$var reg 1 2 pop $end
$var reg 1 3 push0 $end
$var reg 1 4 push1 $end
$var reg 1 5 push2 $end
$var reg 1 6 push3 $end
$upscope $end
$scope module arbitro_2_estructural $end
$var wire 1 . almost_full0 $end
$var wire 1 - almost_full1 $end
$var wire 1 , almost_full2 $end
$var wire 1 + almost_full3 $end
$var wire 1 * clk $end
$var wire 1 ) empty $end
$var wire 1 # pop $end
$var wire 1 $ push0 $end
$var wire 1 % push1 $end
$var wire 1 & push2 $end
$var wire 1 ' push3 $end
$var wire 4 7 state [3:0] $end
$var wire 2 8 contador [1:0] $end
$var wire 1 9 _22_ $end
$var wire 1 : _21_ $end
$var wire 1 ; _20_ $end
$var wire 1 < _19_ $end
$var wire 1 = _18_ $end
$var wire 1 > _17_ $end
$var wire 1 ? _16_ $end
$var wire 1 @ _15_ $end
$var wire 1 A _14_ $end
$var wire 1 B _13_ $end
$var wire 1 C _12_ $end
$var wire 1 D _11_ $end
$var wire 1 E _10_ $end
$var wire 1 F _09_ $end
$var wire 1 G _08_ $end
$var wire 1 H _07_ $end
$var wire 1 I _06_ $end
$var wire 1 J _05_ $end
$var wire 1 K _04_ $end
$var wire 1 L _03_ $end
$var wire 1 M _02_ $end
$var wire 1 N _01_ $end
$var wire 2 O _00_ [1:0] $end
$scope module _23_ $end
$var wire 1 P A $end
$var wire 1 N Y $end
$upscope $end
$scope module _24_ $end
$var wire 1 ) A $end
$var wire 1 M Y $end
$upscope $end
$scope module _25_ $end
$var wire 1 + A $end
$var wire 1 L Y $end
$upscope $end
$scope module _26_ $end
$var wire 1 Q A $end
$var wire 1 K Y $end
$upscope $end
$scope module _27_ $end
$var wire 1 R A $end
$var wire 1 S B $end
$var wire 1 J Y $end
$upscope $end
$scope module _28_ $end
$var wire 1 T A $end
$var wire 1 U B $end
$var wire 1 I Y $end
$upscope $end
$scope module _29_ $end
$var wire 1 V A $end
$var wire 1 K B $end
$var wire 1 H Y $end
$upscope $end
$scope module _30_ $end
$var wire 1 I A $end
$var wire 1 H B $end
$var wire 1 G Y $end
$upscope $end
$scope module _31_ $end
$var wire 1 J A $end
$var wire 1 G B $end
$var wire 1 F Y $end
$upscope $end
$scope module _32_ $end
$var wire 1 W A $end
$var wire 1 M B $end
$var wire 1 E Y $end
$upscope $end
$scope module _33_ $end
$var wire 1 E A $end
$var wire 1 D Y $end
$upscope $end
$scope module _34_ $end
$var wire 1 N A $end
$var wire 1 ) B $end
$var wire 1 C Y $end
$upscope $end
$scope module _35_ $end
$var wire 1 E A $end
$var wire 1 C B $end
$var wire 1 B Y $end
$upscope $end
$scope module _36_ $end
$var wire 1 F A $end
$var wire 1 B B $end
$var wire 1 X Y $end
$upscope $end
$scope module _37_ $end
$var wire 1 Y A $end
$var wire 1 D B $end
$var wire 1 A Y $end
$upscope $end
$scope module _38_ $end
$var wire 1 F A $end
$var wire 1 A B $end
$var wire 1 Z Y $end
$upscope $end
$scope module _39_ $end
$var wire 1 ) A $end
$var wire 1 . B $end
$var wire 1 @ Y $end
$upscope $end
$scope module _40_ $end
$var wire 1 @ A $end
$var wire 1 ? Y $end
$upscope $end
$scope module _41_ $end
$var wire 1 - A $end
$var wire 1 , B $end
$var wire 1 > Y $end
$upscope $end
$scope module _42_ $end
$var wire 1 L A $end
$var wire 1 > B $end
$var wire 1 = Y $end
$upscope $end
$scope module _43_ $end
$var wire 1 ? A $end
$var wire 1 = B $end
$var wire 1 # Y $end
$upscope $end
$scope module _44_ $end
$var wire 1 M A $end
$var wire 1 G B $end
$var wire 1 < Y $end
$upscope $end
$scope module _45_ $end
$var wire 1 F A $end
$var wire 1 E B $end
$var wire 1 % Y $end
$upscope $end
$scope module _46_ $end
$var wire 1 J A $end
$var wire 1 < B $end
$var wire 1 ' Y $end
$upscope $end
$scope module _47_ $end
$var wire 1 N A $end
$var wire 1 [ B $end
$var wire 1 ; Y $end
$upscope $end
$scope module _48_ $end
$var wire 1 < A $end
$var wire 1 ; B $end
$var wire 1 & Y $end
$upscope $end
$scope module _49_ $end
$var wire 1 \ A $end
$var wire 1 ] B $end
$var wire 1 : Y $end
$upscope $end
$scope module _50_ $end
$var wire 1 : A $end
$var wire 1 9 Y $end
$upscope $end
$scope module _51_ $end
$var wire 1 < A $end
$var wire 1 9 B $end
$var wire 1 $ Y $end
$upscope $end
$scope module _52_ $end
$var wire 1 * C $end
$var wire 1 ^ D $end
$var reg 1 _ Q $end
$upscope $end
$scope module _53_ $end
$var wire 1 * C $end
$var wire 1 ` D $end
$var reg 1 a Q $end
$upscope $end
$upscope $end
$upscope $end
$scope module DFFSR $end
$var wire 1 b C $end
$var wire 1 c D $end
$var wire 1 d R $end
$var wire 1 e S $end
$var reg 1 f Q $end
$upscope $end
$enddefinitions $end
#0
$dumpvars
xf
ze
zd
zc
zb
xa
0`
x_
0^
x]
x\
x[
0Z
xY
0X
xW
0V
0U
0T
xS
xR
1Q
xP
b0 O
xN
1M
1L
0K
xJ
1I
1H
0G
1F
xE
xD
1C
xB
xA
1@
0?
1>
0=
1<
x;
x:
x9
bx 8
b1 7
06
05
04
03
12
bx 1
b1 0
b1 /
0.
0-
0,
0+
0*
0)
b1 (
0'
0&
0%
0$
1#
z"
z!
$end
#2
1A
0B
0D
09
1E
1:
1;
1J
1N
0\
0W
0R
0P
0]
0[
0Y
0S
b0 1
0_
b0 8
0a
1*
#4
0*
#6
1^
b1 O
1X
0F
0<
1G
0H
0I
1K
1$
13
0Q
1T
b10 (
b10 /
b10 0
b10 7
1*
#8
0*
#10
1`
1Z
0^
b10 O
0X
0A
1B
19
1D
0:
0E
0N
1%
14
0$
03
1\
1W
1R
1P
b1 1
b1 8
1_
1*
#12
0*
#14
1^
b11 O
1X
0B
0D
0;
1E
1N
1]
1[
1Y
1S
0\
0W
0R
0P
1&
15
0%
04
1a
b10 8
0_
b10 1
1*
#16
0*
#18
0^
0`
0X
b0 O
0Z
1B
0%
1F
1D
1;
0E
0J
0N
1'
16
0&
05
1\
1W
1R
1P
b11 1
b11 8
1_
1*
#20
0*
#22
1^
0`
1X
b1 O
0Z
1A
0B
0F
09
0D
1:
1E
1J
1N
0]
0[
0Y
0S
0\
0W
0R
0P
1$
13
0'
06
0a
b0 8
0_
b0 1
1*
#24
0*
#26
1`
1Z
0^
b10 O
0X
0A
1B
19
1D
0:
0E
0N
1%
14
0$
03
1\
1W
1R
1P
b1 1
b1 8
1_
0.
1*
#28
0*
#30
0D
0C
1<
1?
0;
1E
0@
1N
0#
02
0M
1]
1[
1Y
1S
0\
0W
0R
0P
0%
04
1)
1a
b10 8
0_
b10 1
1*
#32
0*
#34
0#
02
0.
1*
#36
0*
#38
1*
#40
0*
#42
0#
02
1.
1*
#44
0*
#46
1^
b11 O
1X
0B
0<
1C
0#
02
1&
15
1M
0)
1*
#48
0*
#50
0^
0`
0X
b0 O
0Z
1B
0%
1F
1D
1;
0E
0J
0?
0N
1@
1'
16
0&
05
1\
1W
1R
1P
1#
12
b11 1
b11 8
1_
0.
1*
#52
0*
#54
1^
0`
1X
b1 O
0Z
1A
0B
0F
09
0D
1:
1E
1J
1N
0]
0[
0Y
0S
0\
0W
0R
0P
1$
13
0'
06
0a
b0 8
0_
b0 1
1*
#56
0*
#58
1`
1Z
0^
b10 O
0X
0A
1B
19
1D
0:
0E
0N
1%
14
0$
03
1\
1W
1R
1P
b1 1
b1 8
1_
1*
#60
0*
#62
1^
b11 O
1X
0B
0D
0;
1E
1N
1]
1[
1Y
1S
0\
0W
0R
0P
1&
15
0%
04
1a
b10 8
0_
b10 1
1*
#64
0*
#66
0^
0`
0X
b0 O
0Z
1B
0%
1F
1D
1;
0E
0J
0N
1'
16
0&
05
1\
1W
1R
1P
b11 1
b11 8
1_
1*
#68
0*
#70
0`
b0 O
0Z
1A
0F
09
0D
0C
1<
1?
1:
1E
1J
0@
1N
0#
02
0M
0]
0[
0Y
0S
0\
0W
0R
0P
0'
06
1)
0a
b0 8
0_
b0 1
1*
