Arbitros/arbitro_2/Arbitro_2.vcd
$date
	Fri Nov 26 17:02:50 2021
$end
$version
	Icarus Verilog
$end
$timescale
	1ns
$end
$scope module BUF $end
$var wire 1 ! A $end
$var wire 1 " Y $end
$upscope $end
$scope module BancoPruebas $end
$var wire 1 # pop $end
$var wire 1 $ push0 $end
$var wire 1 % push1 $end
$var wire 1 & push2 $end
$var wire 1 ' push3 $end
$var wire 4 ( state [3:0] $end
$var wire 1 ) empty $end
$var wire 1 * clk $end
$var wire 1 + almost_full3 $end
$var wire 1 , almost_full2 $end
$var wire 1 - almost_full1 $end
$var wire 1 . almost_full0 $end
$scope module Probador $end
$var wire 1 # pop $end
$var wire 1 $ push0 $end
$var wire 1 % push1 $end
$var wire 1 & push2 $end
$var wire 1 ' push3 $end
$var reg 1 . almost_full0 $end
$var reg 1 - almost_full1 $end
$var reg 1 , almost_full2 $end
$var reg 1 + almost_full3 $end
$var reg 1 * clk $end
$var reg 1 ) empty $end
$var reg 4 / state [3:0] $end
$upscope $end
$scope module arbitro_2_conductual $end
$var wire 1 . almost_full0 $end
$var wire 1 - almost_full1 $end
$var wire 1 , almost_full2 $end
$var wire 1 + almost_full3 $end
$var wire 1 * clk $end
$var wire 1 ) empty $end
$var wire 4 0 state [3:0] $end
$var reg 2 1 contador [1:0] $end
$var reg 1 2 pop $end
$var reg 1 3 push0 $end
$var reg 1 4 push1 $end
$var reg 1 5 push2 $end
$var reg 1 6 push3 $end
$upscope $end
$scope module arbitro_2_estructural $end
$var wire 1 . almost_full0 $end
$var wire 1 - almost_full1 $end
$var wire 1 , almost_full2 $end
$var wire 1 + almost_full3 $end
$var wire 1 * clk $end
$var wire 1 ) empty $end
$var wire 1 # pop $end
$var wire 1 $ push0 $end
$var wire 1 % push1 $end
$var wire 1 & push2 $end
$var wire 1 ' push3 $end
$var wire 4 7 state [3:0] $end
$var wire 2 8 contador [1:0] $end
$var wire 1 9 _28_ $end
$var wire 1 : _27_ $end
$var wire 1 ; _26_ $end
$var wire 1 < _25_ $end
$var wire 1 = _24_ $end
$var wire 1 > _23_ $end
$var wire 1 ? _22_ $end
$var wire 1 @ _21_ $end
$var wire 1 A _20_ $end
$var wire 1 B _19_ $end
$var wire 1 C _18_ $end
$var wire 1 D _17_ $end
$var wire 1 E _16_ $end
$var wire 1 F _15_ $end
$var wire 1 G _14_ $end
$var wire 1 H _13_ $end
$var wire 1 I _12_ $end
$var wire 1 J _11_ $end
$var wire 1 K _10_ $end
$var wire 1 L _09_ $end
$var wire 1 M _08_ $end
$var wire 1 N _07_ $end
$var wire 1 O _06_ $end
$var wire 1 P _05_ $end
$var wire 1 Q _04_ $end
$var wire 1 R _03_ $end
$var wire 1 S _02_ $end
$var wire 1 T _01_ $end
$var wire 1 U _00_ $end
$scope module _29_ $end
$var wire 1 V A $end
$var wire 1 S Y $end
$upscope $end
$scope module _30_ $end
$var wire 1 W A $end
$var wire 1 R Y $end
$upscope $end
$scope module _31_ $end
$var wire 1 X A $end
$var wire 1 Q Y $end
$upscope $end
$scope module _32_ $end
$var wire 1 Y A $end
$var wire 1 P Y $end
$upscope $end
$scope module _33_ $end
$var wire 1 ) A $end
$var wire 1 O Y $end
$upscope $end
$scope module _34_ $end
$var wire 1 + A $end
$var wire 1 N Y $end
$upscope $end
$scope module _35_ $end
$var wire 1 Q A $end
$var wire 1 Z B $end
$var wire 1 M Y $end
$upscope $end
$scope module _36_ $end
$var wire 1 [ A $end
$var wire 1 P B $end
$var wire 1 L Y $end
$upscope $end
$scope module _37_ $end
$var wire 1 \ A $end
$var wire 1 ] B $end
$var wire 1 K Y $end
$upscope $end
$scope module _38_ $end
$var wire 1 K A $end
$var wire 1 J Y $end
$upscope $end
$scope module _39_ $end
$var wire 1 L A $end
$var wire 1 J B $end
$var wire 1 I Y $end
$upscope $end
$scope module _40_ $end
$var wire 1 M A $end
$var wire 1 K B $end
$var wire 1 H Y $end
$upscope $end
$scope module _41_ $end
$var wire 1 S A $end
$var wire 1 ^ B $end
$var wire 1 G Y $end
$upscope $end
$scope module _42_ $end
$var wire 1 ) A $end
$var wire 1 G B $end
$var wire 1 F Y $end
$upscope $end
$scope module _43_ $end
$var wire 1 _ A $end
$var wire 1 O B $end
$var wire 1 E Y $end
$upscope $end
$scope module _44_ $end
$var wire 1 F A $end
$var wire 1 E B $end
$var wire 1 D Y $end
$upscope $end
$scope module _45_ $end
$var wire 1 I A $end
$var wire 1 D B $end
$var wire 1 U Y $end
$upscope $end
$scope module _46_ $end
$var wire 1 ) A $end
$var wire 1 . B $end
$var wire 1 C Y $end
$upscope $end
$scope module _47_ $end
$var wire 1 C A $end
$var wire 1 B Y $end
$upscope $end
$scope module _48_ $end
$var wire 1 - A $end
$var wire 1 , B $end
$var wire 1 A Y $end
$upscope $end
$scope module _49_ $end
$var wire 1 N A $end
$var wire 1 A B $end
$var wire 1 @ Y $end
$upscope $end
$scope module _50_ $end
$var wire 1 B A $end
$var wire 1 @ B $end
$var wire 1 # Y $end
$upscope $end
$scope module _51_ $end
$var wire 1 O A $end
$var wire 1 H B $end
$var wire 1 ? Y $end
$upscope $end
$scope module _52_ $end
$var wire 1 ` A $end
$var wire 1 a B $end
$var wire 1 > Y $end
$upscope $end
$scope module _53_ $end
$var wire 1 ? A $end
$var wire 1 > B $end
$var wire 1 ' Y $end
$upscope $end
$scope module _54_ $end
$var wire 1 b A $end
$var wire 1 R B $end
$var wire 1 = Y $end
$upscope $end
$scope module _55_ $end
$var wire 1 ? A $end
$var wire 1 = B $end
$var wire 1 & Y $end
$upscope $end
$scope module _56_ $end
$var wire 1 G A $end
$var wire 1 ? B $end
$var wire 1 % Y $end
$upscope $end
$scope module _57_ $end
$var wire 1 c A $end
$var wire 1 d B $end
$var wire 1 < Y $end
$upscope $end
$scope module _58_ $end
$var wire 1 < A $end
$var wire 1 ; Y $end
$upscope $end
$scope module _59_ $end
$var wire 1 ? A $end
$var wire 1 ; B $end
$var wire 1 $ Y $end
$upscope $end
$scope module _60_ $end
$var wire 1 S A $end
$var wire 1 E B $end
$var wire 1 : Y $end
$upscope $end
$scope module _61_ $end
$var wire 1 > A $end
$var wire 1 : B $end
$var wire 1 9 Y $end
$upscope $end
$scope module _62_ $end
$var wire 1 I A $end
$var wire 1 9 B $end
$var wire 1 T Y $end
$upscope $end
$scope module _63_ $end
$var wire 1 * C $end
$var wire 1 U D $end
$var reg 1 e Q $end
$upscope $end
$scope module _64_ $end
$var wire 1 * C $end
$var wire 1 T D $end
$var reg 1 f Q $end
$upscope $end
$upscope $end
$upscope $end
$scope module DFFSR $end
$var wire 1 g C $end
$var wire 1 h D $end
$var wire 1 i R $end
$var wire 1 j S $end
$var reg 1 k Q $end
$upscope $end
$enddefinitions $end
#0
$dumpvars
xk
zj
zi
zh
zg
xf
xe
xd
xc
xb
xa
x`
x_
x^
0]
0\
1[
0Z
0Y
1X
xW
xV
0U
0T
xS
xR
0Q
1P
1O
1N
1M
0L
1K
0J
1I
0H
xG
1F
xE
xD
1C
0B
1A
0@
1?
x>
x=
x<
x;
x:
x9
bx 8
b1 7
06
05
04
03
12
bx 1
b1 0
b1 /
0.
0-
0,
0+
0*
0)
b1 (
0'
0&
0%
0$
1#
z"
z!
$end
#2
19
0D
0:
0;
1E
1G
1<
1=
1>
1R
1S
0d
0a
0_
0^
0W
0c
0b
0`
0V
b0 1
0e
b0 8
0f
1*
#4
0*
#6
0?
1U
1H
0I
0M
1L
1Q
0P
1$
13
0X
1Y
1Z
0[
b10 (
b10 /
b10 0
b10 7
1*
#8
0*
#10
1T
0U
09
1D
1:
1;
0<
0E
0G
0R
1%
14
0$
03
1d
1a
1_
1^
1W
b1 1
b1 8
1e
1*
#12
0*
#14
1U
0D
0=
1E
1G
0S
1R
1c
1b
1`
1V
0d
0a
0_
0^
0W
1&
15
0%
04
1f
b10 8
0e
b10 1
1*
#16
0*
#18
0T
0U
19
1D
1=
0>
0E
0R
1'
16
0&
05
1d
1a
1_
1^
1W
b11 1
b11 8
1e
1*
#20
0*
#22
0T
1U
19
0D
0:
0;
1<
1>
1E
1S
1R
0c
0b
0`
0V
0d
0a
0_
0^
0W
1$
13
0'
06
0f
b0 8
0e
b0 1
1*
#24
0*
#26
1T
0U
09
1D
1:
1;
0<
0E
0G
0R
1%
14
0$
03
1d
1a
1_
1^
1W
b1 1
b1 8
1e
0.
1*
#28
0*
#30
0U
1D
0F
1?
1B
0=
1E
1G
0C
0S
1R
0#
02
0O
1c
1b
1`
1V
0d
0a
0_
0^
0W
0%
04
1)
1f
b10 8
0e
b10 1
1*
#32
0*
#34
0#
02
0.
1*
#36
0*
#38
1*
#40
0*
#42
0#
02
1.
1*
#44
0*
#46
1U
0D
0?
1F
0#
02
1&
15
1O
0)
1*
#48
0*
#50
0T
0U
19
1D
1=
0>
0E
0B
0R
1C
1'
16
0&
05
1d
1a
1_
1^
1W
1#
12
b11 1
b11 8
1e
0.
1*
#52
0*
#54
0T
1U
19
0D
0:
0;
1<
1>
1E
1S
1R
0c
0b
0`
0V
0d
0a
0_
0^
0W
1$
13
0'
06
0f
b0 8
0e
b0 1
1*
#56
0*
#58
1T
0U
09
1D
1:
1;
0<
0E
0G
0R
1%
14
0$
03
1d
1a
1_
1^
1W
b1 1
b1 8
1e
1*
#60
0*
#62
1U
0D
0=
1E
1G
0S
1R
1c
1b
1`
1V
0d
0a
0_
0^
0W
1&
15
0%
04
1f
b10 8
0e
b10 1
1*
#64
0*
#66
0T
0U
19
1D
1=
0>
0E
0R
1'
16
0&
05
1d
1a
1_
1^
1W
b11 1
b11 8
1e
1*
#68
0*
#70
0T
19
0:
0;
1?
1B
1<
1>
1E
0F
0C
1S
1R
0#
02
0O
0c
0b
0`
0V
0d
0a
0_
0^
0W
0'
06
1)
0f
b0 8
0e
b0 1
1*
