Transaction_Layer_PCIE/Completo.vcd
$date
	Thu Nov 25 09:00:24 2021
$end
$version
	Icarus Verilog
$end
$timescale
	100ps
$end
$scope module BancoPruebas $end
$var wire 5 ! contador_e [4:0] $end
$var wire 12 " data_out0_e [11:0] $end
$var wire 12 # data_out1_e [11:0] $end
$var wire 12 $ data_out2_e [11:0] $end
$var wire 12 % data_out3_e [11:0] $end
$var wire 1 & valid_e $end
$var wire 1 ' valid_c $end
$var wire 1 ( reset $end
$var wire 1 ) req $end
$var wire 1 * push_in3 $end
$var wire 1 + push_in2 $end
$var wire 1 , push_in1 $end
$var wire 1 - push_in0 $end
$var wire 1 . pop_in3 $end
$var wire 1 / pop_in2 $end
$var wire 1 0 pop_in1 $end
$var wire 1 1 pop_in0 $end
$var wire 1 2 init $end
$var wire 3 3 idx [2:0] $end
$var wire 1 4 idle $end
$var wire 12 5 data_out3_c [11:0] $end
$var wire 12 6 data_out2_c [11:0] $end
$var wire 12 7 data_out1_c [11:0] $end
$var wire 12 8 data_out0_c [11:0] $end
$var wire 12 9 data_in3 [11:0] $end
$var wire 12 : data_in2 [11:0] $end
$var wire 12 ; data_in1 [11:0] $end
$var wire 12 < data_in0 [11:0] $end
$var wire 5 = contador_c [4:0] $end
$var wire 1 > clk $end
$var wire 3 ? Umbral_bajo [2:0] $end
$var wire 3 @ Umbral_alto [2:0] $end
$scope module TL_conductual $end
$var wire 1 A almost_empty $end
$var wire 1 B almost_full $end
$var wire 1 C pop_in4 $end
$var wire 1 ' valid $end
$var wire 3 D umbral_superior [2:0] $end
$var wire 3 E umbral_inferior [2:0] $end
$var wire 4 F state [3:0] $end
$var wire 1 ( reset $end
$var wire 1 ) req $end
$var wire 1 * push_in3 $end
$var wire 1 + push_in2 $end
$var wire 1 , push_in1 $end
$var wire 1 - push_in0 $end
$var wire 1 G push $end
$var wire 1 . pop_in3 $end
$var wire 1 / pop_in2 $end
$var wire 1 0 pop_in1 $end
$var wire 1 1 pop_in0 $end
$var wire 1 H pop_Ar3 $end
$var wire 1 I pop_Ar2 $end
$var wire 1 J pop_Ar1 $end
$var wire 1 K pop_Ar0 $end
$var wire 12 L outFIFO_in3 [11:0] $end
$var wire 12 M outFIFO_in2 [11:0] $end
$var wire 12 N outFIFO_in1 [11:0] $end
$var wire 12 O outFIFO_in0 [11:0] $end
$var wire 1 2 init $end
$var wire 12 P inFIFO_out3 [11:0] $end
$var wire 12 Q inFIFO_out2 [11:0] $end
$var wire 12 R inFIFO_out1 [11:0] $end
$var wire 12 S inFIFO_out0 [11:0] $end
$var wire 3 T idx [2:0] $end
$var wire 1 4 idle $end
$var wire 1 U empty7 $end
$var wire 1 V empty6 $end
$var wire 1 W empty5 $end
$var wire 1 X empty4 $end
$var wire 1 Y empty3 $end
$var wire 1 Z empty2 $end
$var wire 1 [ empty1 $end
$var wire 1 \ empty0 $end
$var wire 10 ] empties [9:0] $end
$var wire 12 ^ data_out3 [11:0] $end
$var wire 12 _ data_out2 [11:0] $end
$var wire 12 ` data_out1 [11:0] $end
$var wire 12 a data_out0 [11:0] $end
$var wire 12 b data_in3 [11:0] $end
$var wire 12 c data_in2 [11:0] $end
$var wire 12 d data_in1 [11:0] $end
$var wire 12 e data_in0 [11:0] $end
$var wire 5 f contador [4:0] $end
$var wire 1 > clk $end
$var wire 1 g almost_full3 $end
$var wire 1 h almost_full2 $end
$var wire 1 i almost_full1 $end
$var wire 1 j almost_full0 $end
$var wire 3 k Umbral_bajo [2:0] $end
$var wire 3 l Umbral_alto [2:0] $end
$scope module Contadores $end
$var wire 1 C pop_4 $end
$var wire 1 ( reset_L $end
$var wire 1 . pop_3 $end
$var wire 1 / pop_2 $end
$var wire 1 0 pop_1 $end
$var wire 1 1 pop_0 $end
$var wire 3 m idx [2:0] $end
$var wire 1 4 idle $end
$var wire 1 > clk $end
$var reg 5 n data_0 [4:0] $end
$var reg 5 o data_1 [4:0] $end
$var reg 5 p data_2 [4:0] $end
$var reg 5 q data_3 [4:0] $end
$var reg 5 r data_4 [4:0] $end
$var reg 5 s data_out [4:0] $end
$var reg 1 ' valid $end
$upscope $end
$scope module FIFO_in0 $end
$var wire 3 t um_sup [2:0] $end
$var wire 3 u um_inf [2:0] $end
$var wire 4 v state [3:0] $end
$var wire 1 - push $end
$var wire 1 K pop $end
$var wire 12 w data_out [11:0] $end
$var wire 12 x data_in [11:0] $end
$var wire 1 > clk $end
$var reg 1 y alm_empty $end
$var reg 1 z alm_full $end
$var reg 4 { contador [3:0] $end
$var reg 1 \ empty $end
$var reg 1 | full $end
$var reg 3 } low_space [2:0] $end
$var reg 3 ~ much_space [2:0] $end
$var reg 3 !" rd_ptr [2:0] $end
$var reg 1 "" re_a $end
$var reg 1 #" we_a $end
$var reg 3 $" wr_ptr [2:0] $end
$scope module memory $end
$var wire 3 %" addr_ra [2:0] $end
$var wire 3 &" addr_wa [2:0] $end
$var wire 1 "" re_a $end
$var wire 1 #" we_a $end
$var wire 4 '" state [3:0] $end
$var wire 12 (" data_a [11:0] $end
$var wire 1 > clk $end
$var reg 12 )" q_a [11:0] $end
$upscope $end
$upscope $end
$scope module FIFO_in1 $end
$var wire 3 *" um_sup [2:0] $end
$var wire 3 +" um_inf [2:0] $end
$var wire 4 ," state [3:0] $end
$var wire 1 , push $end
$var wire 1 J pop $end
$var wire 12 -" data_out [11:0] $end
$var wire 12 ." data_in [11:0] $end
$var wire 1 > clk $end
$var reg 1 /" alm_empty $end
$var reg 1 0" alm_full $end
$var reg 4 1" contador [3:0] $end
$var reg 1 [ empty $end
$var reg 1 2" full $end
$var reg 3 3" low_space [2:0] $end
$var reg 3 4" much_space [2:0] $end
$var reg 3 5" rd_ptr [2:0] $end
$var reg 1 6" re_a $end
$var reg 1 7" we_a $end
$var reg 3 8" wr_ptr [2:0] $end
$scope module memory $end
$var wire 3 9" addr_ra [2:0] $end
$var wire 3 :" addr_wa [2:0] $end
$var wire 1 6" re_a $end
$var wire 1 7" we_a $end
$var wire 4 ;" state [3:0] $end
$var wire 12 <" data_a [11:0] $end
$var wire 1 > clk $end
$var reg 12 =" q_a [11:0] $end
$upscope $end
$upscope $end
$scope module FIFO_in2 $end
$var wire 3 >" um_sup [2:0] $end
$var wire 3 ?" um_inf [2:0] $end
$var wire 4 @" state [3:0] $end
$var wire 1 + push $end
$var wire 1 I pop $end
$var wire 12 A" data_out [11:0] $end
$var wire 12 B" data_in [11:0] $end
$var wire 1 > clk $end
$var reg 1 C" alm_empty $end
$var reg 1 D" alm_full $end
$var reg 4 E" contador [3:0] $end
$var reg 1 Z empty $end
$var reg 1 F" full $end
$var reg 3 G" low_space [2:0] $end
$var reg 3 H" much_space [2:0] $end
$var reg 3 I" rd_ptr [2:0] $end
$var reg 1 J" re_a $end
$var reg 1 K" we_a $end
$var reg 3 L" wr_ptr [2:0] $end
$scope module memory $end
$var wire 3 M" addr_ra [2:0] $end
$var wire 3 N" addr_wa [2:0] $end
$var wire 1 J" re_a $end
$var wire 1 K" we_a $end
$var wire 4 O" state [3:0] $end
$var wire 12 P" data_a [11:0] $end
$var wire 1 > clk $end
$var reg 12 Q" q_a [11:0] $end
$upscope $end
$upscope $end
$scope module FIFO_in3 $end
$var wire 3 R" um_sup [2:0] $end
$var wire 3 S" um_inf [2:0] $end
$var wire 4 T" state [3:0] $end
$var wire 1 * push $end
$var wire 1 H pop $end
$var wire 12 U" data_out [11:0] $end
$var wire 12 V" data_in [11:0] $end
$var wire 1 > clk $end
$var reg 1 W" alm_empty $end
$var reg 1 X" alm_full $end
$var reg 4 Y" contador [3:0] $end
$var reg 1 Y empty $end
$var reg 1 Z" full $end
$var reg 3 [" low_space [2:0] $end
$var reg 3 \" much_space [2:0] $end
$var reg 3 ]" rd_ptr [2:0] $end
$var reg 1 ^" re_a $end
$var reg 1 _" we_a $end
$var reg 3 `" wr_ptr [2:0] $end
$scope module memory $end
$var wire 3 a" addr_ra [2:0] $end
$var wire 3 b" addr_wa [2:0] $end
$var wire 1 ^" re_a $end
$var wire 1 _" we_a $end
$var wire 4 c" state [3:0] $end
$var wire 12 d" data_a [11:0] $end
$var wire 1 > clk $end
$var reg 12 e" q_a [11:0] $end
$upscope $end
$upscope $end
$scope module FIFO_out0 $end
$var wire 3 f" um_sup [2:0] $end
$var wire 3 g" um_inf [2:0] $end
$var wire 4 h" state [3:0] $end
$var wire 1 G push $end
$var wire 1 1 pop $end
$var wire 12 i" data_out [11:0] $end
$var wire 12 j" data_in [11:0] $end
$var wire 1 > clk $end
$var reg 1 k" alm_empty $end
$var reg 1 j alm_full $end
$var reg 4 l" contador [3:0] $end
$var reg 1 X empty $end
$var reg 1 m" full $end
$var reg 3 n" low_space [2:0] $end
$var reg 3 o" much_space [2:0] $end
$var reg 3 p" rd_ptr [2:0] $end
$var reg 1 q" re_a $end
$var reg 1 r" we_a $end
$var reg 3 s" wr_ptr [2:0] $end
$scope module memory $end
$var wire 3 t" addr_ra [2:0] $end
$var wire 3 u" addr_wa [2:0] $end
$var wire 1 q" re_a $end
$var wire 1 r" we_a $end
$var wire 4 v" state [3:0] $end
$var wire 12 w" data_a [11:0] $end
$var wire 1 > clk $end
$var reg 12 x" q_a [11:0] $end
$upscope $end
$upscope $end
$scope module FIFO_out1 $end
$var wire 3 y" um_sup [2:0] $end
$var wire 3 z" um_inf [2:0] $end
$var wire 4 {" state [3:0] $end
$var wire 1 G push $end
$var wire 1 0 pop $end
$var wire 12 |" data_out [11:0] $end
$var wire 12 }" data_in [11:0] $end
$var wire 1 > clk $end
$var reg 1 ~" alm_empty $end
$var reg 1 i alm_full $end
$var reg 4 !# contador [3:0] $end
$var reg 1 W empty $end
$var reg 1 "# full $end
$var reg 3 ## low_space [2:0] $end
$var reg 3 $# much_space [2:0] $end
$var reg 3 %# rd_ptr [2:0] $end
$var reg 1 &# re_a $end
$var reg 1 '# we_a $end
$var reg 3 (# wr_ptr [2:0] $end
$scope module memory $end
$var wire 3 )# addr_ra [2:0] $end
$var wire 3 *# addr_wa [2:0] $end
$var wire 1 &# re_a $end
$var wire 1 '# we_a $end
$var wire 4 +# state [3:0] $end
$var wire 12 ,# data_a [11:0] $end
$var wire 1 > clk $end
$var reg 12 -# q_a [11:0] $end
$upscope $end
$upscope $end
$scope module FIFO_out2 $end
$var wire 3 .# um_sup [2:0] $end
$var wire 3 /# um_inf [2:0] $end
$var wire 4 0# state [3:0] $end
$var wire 1 G push $end
$var wire 1 / pop $end
$var wire 12 1# data_out [11:0] $end
$var wire 12 2# data_in [11:0] $end
$var wire 1 > clk $end
$var reg 1 3# alm_empty $end
$var reg 1 h alm_full $end
$var reg 4 4# contador [3:0] $end
$var reg 1 V empty $end
$var reg 1 5# full $end
$var reg 3 6# low_space [2:0] $end
$var reg 3 7# much_space [2:0] $end
$var reg 3 8# rd_ptr [2:0] $end
$var reg 1 9# re_a $end
$var reg 1 :# we_a $end
$var reg 3 ;# wr_ptr [2:0] $end
$scope module memory $end
$var wire 3 <# addr_ra [2:0] $end
$var wire 3 =# addr_wa [2:0] $end
$var wire 1 9# re_a $end
$var wire 1 :# we_a $end
$var wire 4 ># state [3:0] $end
$var wire 12 ?# data_a [11:0] $end
$var wire 1 > clk $end
$var reg 12 @# q_a [11:0] $end
$upscope $end
$upscope $end
$scope module FIFO_out3 $end
$var wire 3 A# um_sup [2:0] $end
$var wire 3 B# um_inf [2:0] $end
$var wire 4 C# state [3:0] $end
$var wire 1 G push $end
$var wire 1 . pop $end
$var wire 12 D# data_out [11:0] $end
$var wire 12 E# data_in [11:0] $end
$var wire 1 > clk $end
$var reg 1 F# alm_empty $end
$var reg 1 g alm_full $end
$var reg 4 G# contador [3:0] $end
$var reg 1 U empty $end
$var reg 1 H# full $end
$var reg 3 I# low_space [2:0] $end
$var reg 3 J# much_space [2:0] $end
$var reg 3 K# rd_ptr [2:0] $end
$var reg 1 L# re_a $end
$var reg 1 M# we_a $end
$var reg 3 N# wr_ptr [2:0] $end
$scope module memory $end
$var wire 3 O# addr_ra [2:0] $end
$var wire 3 P# addr_wa [2:0] $end
$var wire 1 L# re_a $end
$var wire 1 M# we_a $end
$var wire 4 Q# state [3:0] $end
$var wire 12 R# data_a [11:0] $end
$var wire 1 > clk $end
$var reg 12 S# q_a [11:0] $end
$upscope $end
$upscope $end
$scope module FSM $end
$var wire 1 ( reset $end
$var wire 1 2 init $end
$var wire 10 T# empties [9:0] $end
$var wire 1 > clk $end
$var wire 3 U# Low_Threshold [2:0] $end
$var wire 3 V# High_Threshold [2:0] $end
$var reg 4 W# Estado [3:0] $end
$var reg 4 X# ProximoEstado [3:0] $end
$var reg 3 Y# inf_Threshold [2:0] $end
$var reg 4 Z# state [3:0] $end
$var reg 3 [# sup_Threshold [2:0] $end
$upscope $end
$scope module arbitro $end
$var wire 1 j almost_full0 $end
$var wire 1 i almost_full1 $end
$var wire 1 h almost_full2 $end
$var wire 1 g almost_full3 $end
$var wire 1 \ empty0_orange $end
$var wire 1 X empty0_purple $end
$var wire 1 [ empty1_orange $end
$var wire 1 W empty1_purple $end
$var wire 1 Z empty2_orange $end
$var wire 1 V empty2_purple $end
$var wire 1 Y empty3_orange $end
$var wire 1 U empty3_purple $end
$var wire 4 \# state [3:0] $end
$var wire 1 > clk $end
$var reg 10 ]# empties [9:0] $end
$var reg 1 K pop0 $end
$var reg 1 J pop1 $end
$var reg 1 I pop2 $end
$var reg 1 H pop3 $end
$var reg 1 G push $end
$upscope $end
$scope module multiplexores $end
$var wire 12 ^# P0 [11:0] $end
$var wire 12 _# P1 [11:0] $end
$var wire 12 `# P2 [11:0] $end
$var wire 12 a# P3 [11:0] $end
$var wire 4 b# state [3:0] $end
$var wire 1 > clk $end
$var reg 10 c# CanalMedio [9:0] $end
$var reg 12 d# Out0 [11:0] $end
$var reg 12 e# Out1 [11:0] $end
$var reg 12 f# Out2 [11:0] $end
$var reg 12 g# Out3 [11:0] $end
$upscope $end
$upscope $end
$scope module testbench $end
$var wire 5 h# contador_c [4:0] $end
$var wire 5 i# contador_e [4:0] $end
$var wire 12 j# data_out0_c [11:0] $end
$var wire 12 k# data_out0_e [11:0] $end
$var wire 12 l# data_out1_c [11:0] $end
$var wire 12 m# data_out1_e [11:0] $end
$var wire 12 n# data_out2_c [11:0] $end
$var wire 12 o# data_out2_e [11:0] $end
$var wire 12 p# data_out3_c [11:0] $end
$var wire 12 q# data_out3_e [11:0] $end
$var wire 1 ' valid_c $end
$var wire 1 & valid_e $end
$var reg 1 r# Checker_data_out $end
$var reg 3 s# Umbral_alto [2:0] $end
$var reg 3 t# Umbral_bajo [2:0] $end
$var reg 1 > clk $end
$var reg 12 u# data_in0 [11:0] $end
$var reg 12 v# data_in1 [11:0] $end
$var reg 12 w# data_in2 [11:0] $end
$var reg 12 x# data_in3 [11:0] $end
$var reg 1 4 idle $end
$var reg 3 y# idx [2:0] $end
$var reg 1 2 init $end
$var reg 1 1 pop_in0 $end
$var reg 1 0 pop_in1 $end
$var reg 1 / pop_in2 $end
$var reg 1 . pop_in3 $end
$var reg 1 z# pop_in4 $end
$var reg 1 - push_in0 $end
$var reg 1 , push_in1 $end
$var reg 1 + push_in2 $end
$var reg 1 * push_in3 $end
$var reg 1 ) req $end
$var reg 1 ( reset $end
$upscope $end
$upscope $end
$enddefinitions $end
#0
$dumpvars
0z#
b0 y#
b0 x#
b0 w#
b0 v#
b0 u#
b0 t#
b0 s#
xr#
bz q#
bx p#
bz o#
bx n#
bz m#
bx l#
bz k#
bx j#
bz i#
bx h#
b0 g#
b0 f#
b0 e#
b0 d#
bx c#
b1 b#
bx a#
bx `#
bx _#
bx ^#
b0 ]#
b1 \#
bx [#
b1 Z#
bx Y#
b0 X#
bx W#
b0 V#
b0 U#
b0 T#
bx S#
b0 R#
b1 Q#
bx P#
bx O#
bx N#
0M#
0L#
bx K#
bx J#
bx I#
xH#
bx G#
0F#
b0 E#
bx D#
b1 C#
bx B#
bx A#
bx @#
b0 ?#
b1 >#
bx =#
bx <#
bx ;#
0:#
09#
bx 8#
bx 7#
bx 6#
x5#
bx 4#
03#
b0 2#
bx 1#
b1 0#
bx /#
bx .#
bx -#
b0 ,#
b1 +#
bx *#
bx )#
bx (#
0'#
0&#
bx %#
bx $#
bx ##
x"#
bx !#
0~"
b0 }"
bx |"
b1 {"
bx z"
bx y"
bx x"
b0 w"
b1 v"
bx u"
bx t"
bx s"
0r"
0q"
bx p"
bx o"
bx n"
xm"
bx l"
0k"
b0 j"
bx i"
b1 h"
bx g"
bx f"
bx e"
b0 d"
b1 c"
bx b"
bx a"
bx `"
0_"
0^"
bx ]"
bx \"
bx ["
xZ"
bx Y"
0X"
0W"
b0 V"
bx U"
b1 T"
bx S"
bx R"
bx Q"
b0 P"
b1 O"
bx N"
bx M"
bx L"
0K"
0J"
bx I"
bx H"
bx G"
xF"
bx E"
0D"
0C"
b0 B"
bx A"
b1 @"
bx ?"
bx >"
bx ="
b0 <"
b1 ;"
bx :"
bx 9"
bx 8"
07"
06"
bx 5"
bx 4"
bx 3"
x2"
bx 1"
00"
0/"
b0 ."
bx -"
b1 ,"
bx +"
bx *"
bx )"
b0 ("
b1 '"
bx &"
bx %"
bx $"
0#"
0""
bx !"
bx ~
bx }
x|
bx {
0z
0y
b0 x
bx w
b1 v
bx u
bx t
bx s
bx r
bx q
bx p
bx o
bx n
b0 m
b0 l
b0 k
0j
0i
0h
0g
bx f
b0 e
b0 d
b0 c
b0 b
bx a
bx `
bx _
bx ^
b0 ]
x\
x[
xZ
xY
xX
xW
xV
xU
b0 T
b0 S
b0 R
b0 Q
b0 P
bx O
bx N
bx M
bx L
0K
0J
0I
0H
xG
b1 F
bx E
bx D
zC
0B
0A
b0 @
b0 ?
0>
bx =
b0 <
b0 ;
b0 :
b0 9
bx 8
bx 7
bx 6
bx 5
04
b0 3
02
01
00
0/
0.
0-
0,
0+
0*
0)
1(
x'
z&
bz %
bz $
bz #
bz "
bz !
$end
#100
b0 O
b0 w
b0 )"
b0 ^#
b0 ~
b0 }
b0 {
b0 !"
b0 %"
b0 $"
b0 &"
b0 N
b0 -"
b0 ="
b0 _#
b0 4"
b0 3"
b0 1"
b0 5"
b0 9"
b0 8"
b0 :"
b0 M
b0 A"
b0 Q"
b0 `#
b0 H"
b0 G"
b0 E"
b0 I"
b0 M"
b0 L"
b0 N"
b0 L
b0 U"
b0 e"
b0 a#
b0 \"
b0 ["
b0 Y"
b0 ]"
b0 a"
b0 `"
b0 b"
b0 8
b0 a
b0 i"
b0 x"
b0 j#
b0 o"
b0 n"
b0 l"
b0 p"
b0 t"
b0 s"
b0 u"
b0 7
b0 `
b0 |"
b0 -#
b0 l#
b0 $#
b0 ##
b0 !#
b0 %#
b0 )#
b0 (#
b0 *#
b0 6
b0 _
b0 1#
b0 @#
b0 n#
b0 7#
b0 6#
b0 4#
b0 8#
b0 <#
b0 ;#
b0 =#
b0 5
b0 ^
b0 D#
b0 S#
b0 p#
b0 J#
b0 I#
b0 G#
b0 K#
b0 O#
b0 N#
b0 P#
0'
0G
b0 E
b0 u
b0 +"
b0 ?"
b0 S"
b0 g"
b0 z"
b0 /#
b0 B#
b0 Y#
b0 D
b0 t
b0 *"
b0 >"
b0 R"
b0 f"
b0 y"
b0 .#
b0 A#
b0 [#
b1 W#
12
1\
1[
1Z
1Y
1X
1W
1V
1U
b0 c#
0r#
1>
#200
0>
#300
b10 X#
0(
1>
#400
0>
#500
1y
1z
1/"
10"
1C"
1D"
1W"
1B
1X"
1k"
1j
1~"
1i
13#
1h
1A
1F#
1g
b11111111 ]
b11111111 T#
b11111111 ]#
b100 X#
b10 F
b10 v
b10 '"
b10 ,"
b10 ;"
b10 @"
b10 O"
b10 T"
b10 c"
b10 h"
b10 v"
b10 {"
b10 +#
b10 0#
b10 >#
b10 C#
b10 Q#
b10 Z#
b10 \#
b10 b#
b0 r
b0 q
b0 p
b0 o
b0 n
b0 =
b0 f
b0 s
b0 h#
b10 W#
b111 @
b111 l
b111 V#
b111 s#
1>
#600
0>
#700
1r"
1'#
1:#
1M#
b110 @
b110 l
b110 V#
b110 s#
b1 ?
b1 k
b1 U#
b1 t#
b111 D
b111 t
b111 *"
b111 >"
b111 R"
b111 f"
b111 y"
b111 .#
b111 A#
b111 [#
1G
1>
#800
0>
#900
0z
00"
0D"
0B
0X"
0j
0i
0h
0g
b111 }
b111 3"
b111 G"
b111 ["
b111 n"
b111 ##
b111 6#
b111 I#
b1 E
b1 u
b1 +"
b1 ?"
b1 S"
b1 g"
b1 z"
b1 /#
b1 B#
b1 Y#
b110 D
b110 t
b110 *"
b110 >"
b110 R"
b110 f"
b110 y"
b110 .#
b110 A#
b110 [#
02
1>
#1000
0>
#1100
1_"
1K"
17"
1#"
b100 F
b100 v
b100 '"
b100 ,"
b100 ;"
b100 @"
b100 O"
b100 T"
b100 c"
b100 h"
b100 v"
b100 {"
b100 +#
b100 0#
b100 >#
b100 C#
b100 Q#
b100 Z#
b100 \#
b100 b#
b1100001000 9
b1100001000 b
b1100001000 V"
b1100001000 d"
b1100001000 x#
b1000000100 :
b1000000100 c
b1000000100 B"
b1000000100 P"
b1000000100 w#
b100000010 ;
b100000010 d
b100000010 ."
b100000010 <"
b100000010 v#
b1 <
b1 e
b1 x
b1 ("
b1 u#
1*
1+
1,
1-
b100 W#
b1 J#
b110 I#
b1 7#
b110 6#
b1 $#
b110 ##
b1 o"
b110 n"
b1 \"
b110 ["
b1 H"
b110 G"
b1 4"
b110 3"
b1 ~
b110 }
1>
#1200
0>
#1300
b1000 X#
1""
b11110000 ]
b11110000 T#
b11110000 ]#
1K
0K"
0#"
0\
b1 {
b1 $"
b1 &"
0[
b1 1"
b1 8"
b1 :"
0Z
b1 E"
b1 L"
b1 N"
0Y
b1 Y"
b1 `"
b1 b"
0+
0-
1>
#1400
0>
#1500
1K"
b1000 F
b1000 v
b1000 '"
b1000 ,"
b1000 ;"
b1000 @"
b1000 O"
b1000 T"
b1000 c"
b1000 h"
b1000 v"
b1000 {"
b1000 +#
b1000 0#
b1000 >#
b1000 C#
b1000 Q#
b1000 Z#
b1000 \#
b1000 b#
0W"
0_"
xA
0/"
16"
07"
b11110001 ]
b11110001 T#
b11110001 ]#
1J
0K
0""
1#"
b1100001001 9
b1100001001 b
b1100001001 V"
b1100001001 d"
b1100001001 x#
b1000000101 :
b1000000101 c
b1000000101 B"
b1000000101 P"
b1000000101 w#
b100000011 ;
b100000011 d
b100000011 ."
b100000011 <"
b100000011 v#
b10 <
b10 e
b10 x
b10 ("
b10 u#
0*
1+
0,
1-
b1000 W#
b10 Y"
b10 `"
b10 b"
b10 1"
b10 8"
b10 :"
1\
0|
b0 {
b1 !"
b1 %"
b1 O
b1 w
b1 )"
b1 ^#
1>
#1600
0>
#1700
06"
1""
b11110000 ]
b11110000 T#
b11110000 ]#
0J
1K
1/"
0C"
1_"
0K"
17"
0#"
b0 O
b0 w
b0 )"
b0 ^#
0\
b1 {
b10 $"
b10 &"
b100000010 N
b100000010 -"
b100000010 ="
b100000010 _#
02"
b1 1"
b1 5"
b1 9"
b10 E"
b10 L"
b10 N"
1*
0+
1,
0-
b1 c#
1>
#1800
b1 S
b1 j"
b1 w"
b1 d#
0>
#1900
1K"
0_"
0/"
16"
07"
b11100001 ]
b11100001 T#
b11100001 ]#
1J
0K
0""
1#"
b1100001010 9
b1100001010 b
b1100001010 V"
b1100001010 d"
b1100001010 x#
b1000000110 :
b1000000110 c
b1000000110 B"
b1000000110 P"
b1000000110 w#
b100000100 ;
b100000100 d
b100000100 ."
b100000100 <"
b100000100 v#
b11 <
b11 e
b11 x
b11 ("
b11 u#
0*
1+
0,
1-
0X
b1 l"
b1 s"
b1 u"
b11 Y"
b11 `"
b11 b"
b10 1"
b11 8"
b11 :"
b0 N
b0 -"
b0 ="
b0 _#
1\
b0 {
b10 !"
b10 %"
b10 O
b10 w
b10 )"
b10 ^#
b100000010 c#
1>
#2000
b0 S
b0 j"
b0 w"
b0 d#
b100000010 R
b100000010 }"
b100000010 ,#
b100000010 e#
0>
#2100
06"
1""
0J
1K
1/"
b11000000 ]
b11000000 T#
b11000000 ]#
1_"
0K"
17"
0#"
b0 O
b0 w
b0 )"
b0 ^#
0\
b1 {
b11 $"
b11 &"
b100000010 N
b100000010 -"
b100000010 ="
b100000010 _#
b1 1"
b10 5"
b10 9"
b11 E"
b11 L"
b11 N"
0W
b1 !#
b1 (#
b1 *#
1*
0+
1,
0-
b10 c#
1>
#2200
b0 R
b0 }"
b0 ,#
b0 e#
b10 S
b10 j"
b10 w"
b10 d#
0>
#2300
1K"
0k"
0_"
0/"
16"
07"
b11000001 ]
b11000001 T#
b11000001 ]#
1J
0K
0""
1#"
b1100001011 9
b1100001011 b
b1100001011 V"
b1100001011 d"
b1100001011 x#
b1000000111 :
b1000000111 c
b1000000111 B"
b1000000111 P"
b1000000111 w#
b100000101 ;
b100000101 d
b100000101 ."
b100000101 <"
b100000101 v#
b100 <
b100 e
b100 x
b100 ("
b100 u#
0*
1+
0,
1-
b10 l"
b10 s"
b10 u"
b100 Y"
b100 `"
b100 b"
b10 1"
b100 8"
b100 :"
b0 N
b0 -"
b0 ="
b0 _#
1\
b0 {
b11 !"
b11 %"
b11 O
b11 w
b11 )"
b11 ^#
b100000010 c#
1>
#2400
b0 S
b0 j"
b0 w"
b0 d#
b100000010 R
b100000010 }"
b100000010 ,#
b100000010 e#
0>
#2500
06"
1""
b11000000 ]
b11000000 T#
b11000000 ]#
0J
1K
1/"
0~"
1_"
0K"
17"
0#"
b0 O
b0 w
b0 )"
b0 ^#
0\
b1 {
b100 $"
b100 &"
b100000011 N
b100000011 -"
b100000011 ="
b100000011 _#
b1 1"
b11 5"
b11 9"
b100 E"
b100 L"
b100 N"
b10 !#
b10 (#
b10 *#
1*
0+
1,
0-
b11 c#
1>
#2600
b0 R
b0 }"
b0 ,#
b0 e#
b11 S
b11 j"
b11 w"
b11 d#
0>
#2700
1K"
0_"
0/"
16"
07"
b11000001 ]
b11000001 T#
b11000001 ]#
1J
0K
0""
1#"
b1100001100 9
b1100001100 b
b1100001100 V"
b1100001100 d"
b1100001100 x#
b1000001000 :
b1000001000 c
b1000001000 B"
b1000001000 P"
b1000001000 w#
b100000110 ;
b100000110 d
b100000110 ."
b100000110 <"
b100000110 v#
b101 <
b101 e
b101 x
b101 ("
b101 u#
0*
1+
0,
1-
b11 l"
b11 s"
b11 u"
b101 Y"
b101 `"
b101 b"
b10 1"
b101 8"
b101 :"
b0 N
b0 -"
b0 ="
b0 _#
1\
b0 {
b100 !"
b100 %"
b100 O
b100 w
b100 )"
b100 ^#
b100000011 c#
1>
#2800
b0 S
b0 j"
b0 w"
b0 d#
b100000011 R
b100000011 }"
b100000011 ,#
b100000011 e#
0>
#2900
06"
1""
b11000000 ]
b11000000 T#
b11000000 ]#
0J
1K
1/"
1_"
0K"
17"
0#"
b0 O
b0 w
b0 )"
b0 ^#
0\
b1 {
b101 $"
b101 &"
b100000100 N
b100000100 -"
b100000100 ="
b100000100 _#
b1 1"
b100 5"
b100 9"
b101 E"
b101 L"
b101 N"
b11 !#
b11 (#
b11 *#
1*
0+
1,
0-
b100 c#
1>
#3000
b0 R
b0 }"
b0 ,#
b0 e#
b100 S
b100 j"
b100 w"
b100 d#
0>
#3100
1K"
xB
1X"
0_"
0/"
16"
07"
b11000001 ]
b11000001 T#
b11000001 ]#
1J
0K
0""
1#"
b1100001101 9
b1100001101 b
b1100001101 V"
b1100001101 d"
b1100001101 x#
b1000001001 :
b1000001001 c
b1000001001 B"
b1000001001 P"
b1000001001 w#
b100000111 ;
b100000111 d
b100000111 ."
b100000111 <"
b100000111 v#
b110 <
b110 e
b110 x
b110 ("
b110 u#
0*
1+
0,
1-
b100 l"
b100 s"
b100 u"
b110 Y"
b110 `"
b110 b"
b10 1"
b110 8"
b110 :"
b0 N
b0 -"
b0 ="
b0 _#
1\
b0 {
b101 !"
b101 %"
b101 O
b101 w
b101 )"
b101 ^#
b100000100 c#
1>
#3200
b0 S
b0 j"
b0 w"
b0 d#
b100000100 R
b100000100 }"
b100000100 ,#
b100000100 e#
0>
#3300
06"
1""
b11000000 ]
b11000000 T#
b11000000 ]#
0J
1K
1/"
1D"
b0 O
b0 w
b0 )"
b0 ^#
0\
b1 {
b110 $"
b110 &"
b100000101 N
b100000101 -"
b100000101 ="
b100000101 _#
b1 1"
b101 5"
b101 9"
b110 E"
b110 L"
b110 N"
b100 !#
b100 (#
b100 *#
b0 9
b0 b
b0 V"
b0 d"
b0 x#
b0 :
b0 c
b0 B"
b0 P"
b0 w#
b0 ;
b0 d
b0 ."
b0 <"
b0 v#
b0 <
b0 e
b0 x
b0 ("
b0 u#
b101 c#
1>
#3400
b0 R
b0 }"
b0 ,#
b0 e#
b101 S
b101 j"
b101 w"
b101 d#
0>
#3500
16"
b11000001 ]
b11000001 T#
b11000001 ]#
1J
0K
0""
b101 l"
b101 s"
b101 u"
b0 N
b0 -"
b0 ="
b0 _#
1\
b0 {
b110 !"
b110 %"
b110 O
b110 w
b110 )"
b110 ^#
b100000101 c#
1>
#3600
b0 S
b0 j"
b0 w"
b0 d#
b100000101 R
b100000101 }"
b100000101 ,#
b100000101 e#
0>
#3700
1J"
b11000011 ]
b11000011 T#
b11000011 ]#
1I
0J
06"
b0 O
b0 w
b0 )"
b0 ^#
b100000110 N
b100000110 -"
b100000110 ="
b100000110 _#
1[
b0 1"
b110 5"
b110 9"
b101 !#
b101 (#
b101 *#
b110 c#
1>
#3800
b0 R
b0 }"
b0 ,#
b0 e#
b110 S
b110 j"
b110 w"
b110 d#
0>
