Arbitros/arbitro1/Arbitro_1.vcd
$date
	Fri Nov 26 20:38:39 2021
$end
$version
	Icarus Verilog
$end
$timescale
	1ns
$end
$scope module BUF $end
$var wire 1 ! A $end
$var wire 1 " Y $end
$upscope $end
$scope module BancoPruebas $end
$var wire 1 # pop0 $end
$var wire 1 $ pop1 $end
$var wire 1 % pop2 $end
$var wire 1 & pop3 $end
$var wire 1 ' push0 $end
$var wire 1 ( push1 $end
$var wire 1 ) push2 $end
$var wire 1 * push3 $end
$var wire 1 + valid_3 $end
$var wire 1 , valid_2 $end
$var wire 1 - valid_1 $end
$var wire 1 . valid_0 $end
$var wire 4 / state [3:0] $end
$var wire 1 0 empty3 $end
$var wire 1 1 empty2 $end
$var wire 1 2 empty1 $end
$var wire 1 3 empty0 $end
$var wire 2 4 dest [1:0] $end
$var wire 1 5 clk $end
$var wire 1 6 almost_full3 $end
$var wire 1 7 almost_full2 $end
$var wire 1 8 almost_full1 $end
$var wire 1 9 almost_full0 $end
$scope module Probador $end
$var wire 1 # pop0 $end
$var wire 1 $ pop1 $end
$var wire 1 % pop2 $end
$var wire 1 & pop3 $end
$var wire 1 ' push0 $end
$var wire 1 ( push1 $end
$var wire 1 ) push2 $end
$var wire 1 * push3 $end
$var reg 1 9 almost_full0 $end
$var reg 1 8 almost_full1 $end
$var reg 1 7 almost_full2 $end
$var reg 1 6 almost_full3 $end
$var reg 1 5 clk $end
$var reg 2 : dest [1:0] $end
$var reg 1 3 empty0 $end
$var reg 1 2 empty1 $end
$var reg 1 1 empty2 $end
$var reg 1 0 empty3 $end
$var reg 4 ; state [3:0] $end
$var reg 1 . valid_0 $end
$var reg 1 - valid_1 $end
$var reg 1 , valid_2 $end
$var reg 1 + valid_3 $end
$upscope $end
$scope module arbitro_1_conductual $end
$var wire 1 9 almost_full0 $end
$var wire 1 8 almost_full1 $end
$var wire 1 7 almost_full2 $end
$var wire 1 6 almost_full3 $end
$var wire 1 5 clk $end
$var wire 2 < dest [1:0] $end
$var wire 1 3 empty0 $end
$var wire 1 2 empty1 $end
$var wire 1 1 empty2 $end
$var wire 1 0 empty3 $end
$var wire 4 = state [3:0] $end
$var wire 1 . valid_0 $end
$var wire 1 - valid_1 $end
$var wire 1 , valid_2 $end
$var wire 1 + valid_3 $end
$var reg 3 > contador0 [2:0] $end
$var reg 3 ? contador1 [2:0] $end
$var reg 3 @ contador2 [2:0] $end
$var reg 3 A contador3 [2:0] $end
$var reg 1 B pop0 $end
$var reg 1 C pop1 $end
$var reg 1 D pop2 $end
$var reg 1 E pop3 $end
$var reg 1 F push0 $end
$var reg 1 G push1 $end
$var reg 1 H push2 $end
$var reg 1 I push3 $end
$upscope $end
$scope module arbitro_1_estructural $end
$var wire 1 9 almost_full0 $end
$var wire 1 8 almost_full1 $end
$var wire 1 7 almost_full2 $end
$var wire 1 6 almost_full3 $end
$var wire 1 5 clk $end
$var wire 2 J dest [1:0] $end
$var wire 1 3 empty0 $end
$var wire 1 2 empty1 $end
$var wire 1 1 empty2 $end
$var wire 1 0 empty3 $end
$var wire 1 # pop0 $end
$var wire 1 $ pop1 $end
$var wire 1 % pop2 $end
$var wire 1 & pop3 $end
$var wire 1 ' push0 $end
$var wire 1 ( push1 $end
$var wire 1 ) push2 $end
$var wire 1 * push3 $end
$var wire 4 K state [3:0] $end
$var wire 1 . valid_0 $end
$var wire 1 - valid_1 $end
$var wire 1 , valid_2 $end
$var wire 1 + valid_3 $end
$var wire 3 L contador3 [2:0] $end
$var wire 3 M contador2 [2:0] $end
$var wire 3 N contador1 [2:0] $end
$var wire 3 O contador0 [2:0] $end
$var wire 1 P _075_ $end
$var wire 1 Q _074_ $end
$var wire 1 R _073_ $end
$var wire 1 S _072_ $end
$var wire 1 T _071_ $end
$var wire 1 U _070_ $end
$var wire 1 V _069_ $end
$var wire 1 W _068_ $end
$var wire 1 X _067_ $end
$var wire 1 Y _066_ $end
$var wire 1 Z _065_ $end
$var wire 1 [ _064_ $end
$var wire 1 \ _063_ $end
$var wire 1 ] _062_ $end
$var wire 1 ^ _061_ $end
$var wire 1 _ _060_ $end
$var wire 1 ` _059_ $end
$var wire 1 a _058_ $end
$var wire 1 b _057_ $end
$var wire 1 c _056_ $end
$var wire 1 d _055_ $end
$var wire 1 e _054_ $end
$var wire 1 f _053_ $end
$var wire 1 g _052_ $end
$var wire 1 h _051_ $end
$var wire 1 i _050_ $end
$var wire 1 j _049_ $end
$var wire 1 k _048_ $end
$var wire 1 l _047_ $end
$var wire 1 m _046_ $end
$var wire 1 n _045_ $end
$var wire 1 o _044_ $end
$var wire 1 p _043_ $end
$var wire 1 q _042_ $end
$var wire 1 r _041_ $end
$var wire 1 s _040_ $end
$var wire 1 t _039_ $end
$var wire 1 u _038_ $end
$var wire 1 v _037_ $end
$var wire 1 w _036_ $end
$var wire 1 x _035_ $end
$var wire 1 y _034_ $end
$var wire 1 z _033_ $end
$var wire 1 { _032_ $end
$var wire 1 | _031_ $end
$var wire 1 } _030_ $end
$var wire 1 ~ _029_ $end
$var wire 1 !" _028_ $end
$var wire 1 "" _027_ $end
$var wire 1 #" _026_ $end
$var wire 1 $" _025_ $end
$var wire 1 %" _024_ $end
$var wire 1 &" _023_ $end
$var wire 1 '" _022_ $end
$var wire 1 (" _021_ $end
$var wire 1 )" _020_ $end
$var wire 1 *" _019_ $end
$var wire 1 +" _018_ $end
$var wire 1 ," _017_ $end
$var wire 1 -" _016_ $end
$var wire 1 ." _015_ $end
$var wire 1 /" _014_ $end
$var wire 1 0" _013_ $end
$var wire 1 1" _012_ $end
$var wire 1 2" _011_ $end
$var wire 1 3" _010_ $end
$var wire 1 4" _009_ $end
$var wire 1 5" _008_ $end
$var wire 1 6" _007_ $end
$var wire 1 7" _006_ $end
$var wire 1 8" _005_ $end
$var wire 1 9" _004_ $end
$var wire 3 :" _003_ [2:0] $end
$var wire 3 ;" _002_ [2:0] $end
$var wire 3 <" _001_ [2:0] $end
$var wire 3 =" _000_ [2:0] $end
$scope module _076_ $end
$var wire 1 >" A $end
$var wire 1 | Y $end
$upscope $end
$scope module _077_ $end
$var wire 1 ?" A $end
$var wire 1 { Y $end
$upscope $end
$scope module _078_ $end
$var wire 1 @" A $end
$var wire 1 z Y $end
$upscope $end
$scope module _079_ $end
$var wire 1 A" A $end
$var wire 1 y Y $end
$upscope $end
$scope module _080_ $end
$var wire 1 B" A $end
$var wire 1 x Y $end
$upscope $end
$scope module _081_ $end
$var wire 1 C" A $end
$var wire 1 w Y $end
$upscope $end
$scope module _082_ $end
$var wire 1 D" A $end
$var wire 1 v Y $end
$upscope $end
$scope module _083_ $end
$var wire 1 E" A $end
$var wire 1 u Y $end
$upscope $end
$scope module _084_ $end
$var wire 1 F" A $end
$var wire 1 t Y $end
$upscope $end
$scope module _085_ $end
$var wire 1 G" A $end
$var wire 1 H" B $end
$var wire 1 s Y $end
$upscope $end
$scope module _086_ $end
$var wire 1 I" A $end
$var wire 1 2 B $end
$var wire 1 r Y $end
$upscope $end
$scope module _087_ $end
$var wire 1 x A $end
$var wire 1 s B $end
$var wire 1 q Y $end
$upscope $end
$scope module _088_ $end
$var wire 1 2 A $end
$var wire 1 q B $end
$var wire 1 p Y $end
$upscope $end
$scope module _089_ $end
$var wire 1 s A $end
$var wire 1 r B $end
$var wire 1 o Y $end
$upscope $end
$scope module _090_ $end
$var wire 1 7 A $end
$var wire 1 9 B $end
$var wire 1 n Y $end
$upscope $end
$scope module _091_ $end
$var wire 1 8 A $end
$var wire 1 6 B $end
$var wire 1 m Y $end
$upscope $end
$scope module _092_ $end
$var wire 1 n A $end
$var wire 1 m B $end
$var wire 1 l Y $end
$upscope $end
$scope module _093_ $end
$var wire 1 l A $end
$var wire 1 k Y $end
$upscope $end
$scope module _094_ $end
$var wire 1 J" A $end
$var wire 1 K" B $end
$var wire 1 j Y $end
$upscope $end
$scope module _095_ $end
$var wire 1 j A $end
$var wire 1 i Y $end
$upscope $end
$scope module _096_ $end
$var wire 1 L" A $end
$var wire 1 t B $end
$var wire 1 h Y $end
$upscope $end
$scope module _097_ $end
$var wire 1 { A $end
$var wire 1 M" B $end
$var wire 1 g Y $end
$upscope $end
$scope module _098_ $end
$var wire 1 i A $end
$var wire 1 g B $end
$var wire 1 f Y $end
$upscope $end
$scope module _099_ $end
$var wire 1 j A $end
$var wire 1 h B $end
$var wire 1 e Y $end
$upscope $end
$scope module _100_ $end
$var wire 1 l A $end
$var wire 1 f B $end
$var wire 1 d Y $end
$upscope $end
$scope module _101_ $end
$var wire 1 k A $end
$var wire 1 e B $end
$var wire 1 c Y $end
$upscope $end
$scope module _102_ $end
$var wire 1 p A $end
$var wire 1 c B $end
$var wire 1 b Y $end
$upscope $end
$scope module _103_ $end
$var wire 1 o A $end
$var wire 1 d B $end
$var wire 1 a Y $end
$upscope $end
$scope module _104_ $end
$var wire 1 N" A $end
$var wire 1 1 B $end
$var wire 1 ` Y $end
$upscope $end
$scope module _105_ $end
$var wire 1 v A $end
$var wire 1 ` B $end
$var wire 1 _ Y $end
$upscope $end
$scope module _106_ $end
$var wire 1 O" A $end
$var wire 1 3 B $end
$var wire 1 ^ Y $end
$upscope $end
$scope module _107_ $end
$var wire 1 ^ A $end
$var wire 1 ] Y $end
$upscope $end
$scope module _108_ $end
$var wire 1 P" A $end
$var wire 1 Q" B $end
$var wire 1 \ Y $end
$upscope $end
$scope module _109_ $end
$var wire 1 R" A $end
$var wire 1 0 B $end
$var wire 1 [ Y $end
$upscope $end
$scope module _110_ $end
$var wire 1 \ A $end
$var wire 1 [ B $end
$var wire 1 Z Y $end
$upscope $end
$scope module _111_ $end
$var wire 1 ^ A $end
$var wire 1 Z B $end
$var wire 1 Y Y $end
$upscope $end
$scope module _112_ $end
$var wire 1 _ A $end
$var wire 1 Y B $end
$var wire 1 X Y $end
$upscope $end
$scope module _113_ $end
$var wire 1 a A $end
$var wire 1 X B $end
$var wire 1 & Y $end
$upscope $end
$scope module _114_ $end
$var wire 1 & A $end
$var wire 1 W Y $end
$upscope $end
$scope module _115_ $end
$var wire 1 o A $end
$var wire 1 ^ B $end
$var wire 1 V Y $end
$upscope $end
$scope module _116_ $end
$var wire 1 d A $end
$var wire 1 V B $end
$var wire 1 U Y $end
$upscope $end
$scope module _117_ $end
$var wire 1 U A $end
$var wire 1 $ Y $end
$upscope $end
$scope module _118_ $end
$var wire 1 _ A $end
$var wire 1 ^ B $end
$var wire 1 T Y $end
$upscope $end
$scope module _119_ $end
$var wire 1 b A $end
$var wire 1 T B $end
$var wire 1 S Y $end
$upscope $end
$scope module _120_ $end
$var wire 1 S A $end
$var wire 1 % Y $end
$upscope $end
$scope module _121_ $end
$var wire 1 c A $end
$var wire 1 ] B $end
$var wire 1 # Y $end
$upscope $end
$scope module _122_ $end
$var wire 1 S" A $end
$var wire 1 e B $end
$var wire 1 R Y $end
$upscope $end
$scope module _123_ $end
$var wire 1 # A $end
$var wire 1 R B $end
$var wire 1 Q Y $end
$upscope $end
$scope module _124_ $end
$var wire 1 & A $end
$var wire 1 Q B $end
$var wire 1 P Y $end
$upscope $end
$scope module _125_ $end
$var wire 1 P A $end
$var wire 1 T" Y $end
$upscope $end
$scope module _126_ $end
$var wire 1 U" A $end
$var wire 1 e B $end
$var wire 1 9" Y $end
$upscope $end
$scope module _127_ $end
$var wire 1 # A $end
$var wire 1 9" B $end
$var wire 1 V" Y $end
$upscope $end
$scope module _128_ $end
$var wire 1 W" A $end
$var wire 1 e B $end
$var wire 1 8" Y $end
$upscope $end
$scope module _129_ $end
$var wire 1 # A $end
$var wire 1 8" B $end
$var wire 1 X" Y $end
$upscope $end
$scope module _130_ $end
$var wire 1 f A $end
$var wire 1 & B $end
$var wire 1 7" Y $end
$upscope $end
$scope module _131_ $end
$var wire 1 e A $end
$var wire 1 W B $end
$var wire 1 6" Y $end
$upscope $end
$scope module _132_ $end
$var wire 1 Y" A $end
$var wire 1 # B $end
$var wire 1 5" Y $end
$upscope $end
$scope module _133_ $end
$var wire 1 Z" A $end
$var wire 1 # B $end
$var wire 1 4" Y $end
$upscope $end
$scope module _134_ $end
$var wire 1 7" A $end
$var wire 1 4" B $end
$var wire 1 3" Y $end
$upscope $end
$scope module _135_ $end
$var wire 1 5" A $end
$var wire 1 3" B $end
$var wire 1 [" Y $end
$upscope $end
$scope module _136_ $end
$var wire 1 u A $end
$var wire 1 4" B $end
$var wire 1 2" Y $end
$upscope $end
$scope module _137_ $end
$var wire 1 u A $end
$var wire 1 4" B $end
$var wire 1 1" Y $end
$upscope $end
$scope module _138_ $end
$var wire 1 7" A $end
$var wire 1 1" B $end
$var wire 1 0" Y $end
$upscope $end
$scope module _139_ $end
$var wire 1 2" A $end
$var wire 1 0" B $end
$var wire 1 \" Y $end
$upscope $end
$scope module _140_ $end
$var wire 1 ]" A $end
$var wire 1 2" B $end
$var wire 1 /" Y $end
$upscope $end
$scope module _141_ $end
$var wire 1 6" A $end
$var wire 1 /" B $end
$var wire 1 ^" Y $end
$upscope $end
$scope module _142_ $end
$var wire 1 w A $end
$var wire 1 S B $end
$var wire 1 ." Y $end
$upscope $end
$scope module _143_ $end
$var wire 1 w A $end
$var wire 1 S B $end
$var wire 1 -" Y $end
$upscope $end
$scope module _144_ $end
$var wire 1 7" A $end
$var wire 1 -" B $end
$var wire 1 ," Y $end
$upscope $end
$scope module _145_ $end
$var wire 1 ." A $end
$var wire 1 ," B $end
$var wire 1 _" Y $end
$upscope $end
$scope module _146_ $end
$var wire 1 `" A $end
$var wire 1 ." B $end
$var wire 1 +" Y $end
$upscope $end
$scope module _147_ $end
$var wire 1 6" A $end
$var wire 1 +" B $end
$var wire 1 a" Y $end
$upscope $end
$scope module _148_ $end
$var wire 1 v A $end
$var wire 1 6" B $end
$var wire 1 b" Y $end
$upscope $end
$scope module _149_ $end
$var wire 1 y A $end
$var wire 1 U B $end
$var wire 1 *" Y $end
$upscope $end
$scope module _150_ $end
$var wire 1 y A $end
$var wire 1 U B $end
$var wire 1 )" Y $end
$upscope $end
$scope module _151_ $end
$var wire 1 7" A $end
$var wire 1 )" B $end
$var wire 1 (" Y $end
$upscope $end
$scope module _152_ $end
$var wire 1 *" A $end
$var wire 1 (" B $end
$var wire 1 c" Y $end
$upscope $end
$scope module _153_ $end
$var wire 1 d" A $end
$var wire 1 *" B $end
$var wire 1 '" Y $end
$upscope $end
$scope module _154_ $end
$var wire 1 6" A $end
$var wire 1 '" B $end
$var wire 1 e" Y $end
$upscope $end
$scope module _155_ $end
$var wire 1 x A $end
$var wire 1 6" B $end
$var wire 1 f" Y $end
$upscope $end
$scope module _156_ $end
$var wire 1 z A $end
$var wire 1 k B $end
$var wire 1 &" Y $end
$upscope $end
$scope module _157_ $end
$var wire 1 g" A $end
$var wire 1 - B $end
$var wire 1 %" Y $end
$upscope $end
$scope module _158_ $end
$var wire 1 &" A $end
$var wire 1 %" B $end
$var wire 1 ( Y $end
$upscope $end
$scope module _159_ $end
$var wire 1 h" A $end
$var wire 1 i" B $end
$var wire 1 $" Y $end
$upscope $end
$scope module _160_ $end
$var wire 1 $" A $end
$var wire 1 #" Y $end
$upscope $end
$scope module _161_ $end
$var wire 1 + A $end
$var wire 1 #" B $end
$var wire 1 "" Y $end
$upscope $end
$scope module _162_ $end
$var wire 1 l A $end
$var wire 1 "" B $end
$var wire 1 * Y $end
$upscope $end
$scope module _163_ $end
$var wire 1 j" A $end
$var wire 1 z B $end
$var wire 1 !" Y $end
$upscope $end
$scope module _164_ $end
$var wire 1 , A $end
$var wire 1 !" B $end
$var wire 1 ~ Y $end
$upscope $end
$scope module _165_ $end
$var wire 1 l A $end
$var wire 1 ~ B $end
$var wire 1 ) Y $end
$upscope $end
$scope module _166_ $end
$var wire 1 | A $end
$var wire 1 . B $end
$var wire 1 } Y $end
$upscope $end
$scope module _167_ $end
$var wire 1 &" A $end
$var wire 1 } B $end
$var wire 1 ' Y $end
$upscope $end
$scope module _168_ $end
$var wire 1 5 C $end
$var wire 1 k" D $end
$var reg 1 l" Q $end
$upscope $end
$scope module _169_ $end
$var wire 1 5 C $end
$var wire 1 m" D $end
$var reg 1 n" Q $end
$upscope $end
$scope module _170_ $end
$var wire 1 5 C $end
$var wire 1 o" D $end
$var reg 1 p" Q $end
$upscope $end
$scope module _171_ $end
$var wire 1 5 C $end
$var wire 1 q" D $end
$var reg 1 r" Q $end
$upscope $end
$scope module _172_ $end
$var wire 1 5 C $end
$var wire 1 s" D $end
$var reg 1 t" Q $end
$upscope $end
$scope module _173_ $end
$var wire 1 5 C $end
$var wire 1 u" D $end
$var reg 1 v" Q $end
$upscope $end
$scope module _174_ $end
$var wire 1 5 C $end
$var wire 1 w" D $end
$var reg 1 x" Q $end
$upscope $end
$scope module _175_ $end
$var wire 1 5 C $end
$var wire 1 y" D $end
$var reg 1 z" Q $end
$upscope $end
$scope module _176_ $end
$var wire 1 5 C $end
$var wire 1 {" D $end
$var reg 1 |" Q $end
$upscope $end
$scope module _177_ $end
$var wire 1 5 C $end
$var wire 1 }" D $end
$var reg 1 ~" Q $end
$upscope $end
$scope module _178_ $end
$var wire 1 5 C $end
$var wire 1 !# D $end
$var reg 1 "# Q $end
$upscope $end
$scope module _179_ $end
$var wire 1 5 C $end
$var wire 1 ## D $end
$var reg 1 $# Q $end
$upscope $end
$upscope $end
$upscope $end
$scope module DFFSR $end
$var wire 1 %# C $end
$var wire 1 &# D $end
$var wire 1 '# R $end
$var wire 1 (# S $end
$var reg 1 )# Q $end
$upscope $end
$enddefinitions $end
#0
$dumpvars
x)#
z(#
z'#
z&#
z%#
x$#
0##
x"#
0!#
x~"
0}"
x|"
0{"
xz"
0y"
xx"
0w"
xv"
0u"
xt"
0s"
xr"
0q"
xp"
0o"
xn"
0m"
xl"
0k"
0j"
0i"
0h"
0g"
0f"
0e"
xd"
0c"
0b"
0a"
x`"
0_"
0^"
x]"
0\"
0["
xZ"
xY"
0X"
xW"
0V"
xU"
0T"
xS"
xR"
xQ"
xP"
xO"
xN"
1M"
0L"
0K"
0J"
xI"
xH"
xG"
1F"
xE"
xD"
xC"
xB"
xA"
0@"
0?"
0>"
b0 ="
b0 <"
b0 ;"
b0 :"
19"
18"
07"
16"
x5"
14"
13"
02"
x1"
10"
x/"
0."
x-"
1,"
x+"
0*"
x)"
1("
x'"
0&"
1%"
1$"
0#"
1""
0!"
1~
x}
1|
1{
1z
xy
xx
xw
xv
xu
0t
xs
xr
xq
xp
xo
1n
1m
0l
1k
1j
0i
1h
0g
1f
0e
0d
1c
0b
1a
x`
x_
x^
x]
x\
x[
xZ
xY
xX
1W
xV
1U
xT
1S
1R
0Q
1P
bx O
bx N
bx M
bx L
b1 K
b0 J
0I
0H
0G
0F
0E
0D
0C
0B
bx A
bx @
bx ?
bx >
b1 =
b0 <
b1 ;
b0 :
09
08
07
06
05
b0 4
03
02
01
00
b1 /
x.
x-
x,
x+
0*
0)
0(
x'
0&
0%
0$
0#
z"
z!
$end
#2
1p
1X
0Y
0V
0T
0q
0o
0_
0Z
01"
0]
0)"
0-"
15"
1/"
1^
1'"
1s
1r
1+"
1`
1\
1[
1u
1y
1x
1w
1v
0Z"
0Y"
0E"
0]"
0O"
0G"
0A"
0d"
0H"
0I"
0B"
0C"
0`"
0N"
0D"
0S"
0P"
0U"
0Q"
0W"
0R"
b0 A
b0 @
b0 ?
b0 >
0l"
0n"
b0 O
0p"
0r"
0t"
b0 N
0v"
0x"
0z"
b0 M
0|"
0~"
0"#
b0 L
0$#
15
#4
05
#6
1k"
b1 ="
1["
03"
0c
06"
1d
17"
1e
0f
0h
1i
05"
0j
1g
1t
1#
1B
0F"
1J"
0M"
b10 /
b10 ;
b10 =
b10 K
15
#8
05
#10
1m"
1\"
0k"
b10 ="
0["
00"
13"
11"
1'
04"
0}
1Z"
1Y"
1F
b1 O
1l"
1.
1#
1B
b1 >
15
#12
05
#14
1k"
b11 ="
1["
03"
14"
0u
1E"
0Z"
0Y"
1n"
b10 O
0l"
1#
1B
b10 >
15
#16
05
#18
1o"
1^"
0k"
0m"
0["
b100 ="
0\"
0/"
13"
12"
1}
04"
0%"
0|
1Z"
1Y"
1(
1G
0'
0F
1>"
1g"
1h"
1j"
b11 O
1l"
1-
b1 4
b1 :
b1 <
b1 J
1#
1B
b11 >
15
#20
05
#22
1q"
b1 <"
1c"
0("
1)"
0U
10"
1Y
1V
1T
1]
01"
0^
15"
1u
1]"
1O"
0E"
0Z"
0Y"
1p"
0n"
b100 O
0l"
1o"
1^"
0k"
0m"
0["
b100 ="
0\"
0/"
03"
02"
14"
1$
1C
0#
0B
b100 >
15
#24
05
#26
1s"
1e"
0q"
b10 <"
0c"
0'"
1*"
0y
1G"
1A"
1H
b1 N
1r"
1,
09
1)
0~
0}
1&"
1!"
1%"
1|
0z
1$
1C
0(
0G
0>"
1@"
0g"
0h"
1i"
0j"
b1 ?
b10 4
b10 :
b10 <
b10 J
15
#28
05
#30
1q"
b11 <"
1c"
0*"
1y
1d"
1H"
0G"
0A"
1t"
b10 N
0r"
1$
1C
b10 ?
15
#32
05
#34
1w"
b1 ;"
1_"
0,"
1-"
0S
1b
1U
0p
0a
0V
1q"
b11 <"
1c"
1q
1o
0*"
0s
0y
1G"
1A"
1I
b11 N
1r"
1+
09
1*
0""
1~
1}
1#"
0%"
0$"
0!"
0|
1%
1D
0$
0C
0)
0H
1>"
1g"
1h"
1j"
b11 ?
b11 4
b11 :
b11 <
b11 J
15
#36
05
#38
1y"
1a"
0w"
b10 ;"
0_"
0+"
1."
0w
1C"
b1 M
1x"
1%
1D
b1 @
15
#40
05
#42
0-"
1S
0b
1a
0w"
0X
0T
1c
0_"
0d
1_
0k
0."
1l
0`
1w
0n
0C"
1`"
1N"
0*
0I
0x"
b10 M
1z"
19
1q"
1o"
1y"
1s"
1c"
b100 ="
1^"
b10 ;"
1a"
b11 <"
1e"
0}"
03"
1,"
0("
06"
b0 :"
0T"
1P
17"
1W
0&
0E
0%
0D
b10 @
15
#44
05
#46
15
#48
05
#50
1b
0q"
0a
0o"
0y"
0s"
0c"
0c
b0 ="
0^"
b0 ;"
0a"
b0 <"
0e"
1d
1}"
13"
1("
1k
16"
b1 :"
1T"
0l
0P
07"
0W
1n
1*
1I
1&
1E
09
15
#52
05
#54
0b
1p
1a
1X
0Q
1Z
0_
0q
0o
0Y
0)"
0]
0R
0\
1+"
1`
1'"
1s
1/"
1^
1y
1S"
1P"
0`"
0N"
0d"
0H"
0G"
0A"
0]"
0O"
b1 L
1~"
b0 M
0z"
0t"
b0 N
0r"
b0 O
0p"
1k"
0q"
0o"
0y"
0s"
1["
0c"
b1 ="
0^"
b0 ;"
0a"
b0 <"
0e"
0}"
03"
1("
06"
b0 :"
0T"
05"
1P
17"
1W
1#
1B
0&
0E
b0 >
b0 @
b0 ?
b1 A
15
#56
05
#58
1m"
1\"
0k"
b10 ="
0["
00"
13"
11"
0Z
04"
1R
1\
1Z"
1Y"
0S"
0P"
b1 O
1l"
b0 L
0~"
1#
1B
b0 A
b1 >
15
#60
05
#62
1k"
b11 ="
1["
03"
14"
0u
1E"
0Z"
0Y"
1n"
b10 O
0l"
1#
1B
b10 >
15
#64
05
#66
1o"
1^"
0k"
0m"
0["
b100 ="
0\"
0/"
13"
12"
04"
1Z"
1Y"
b11 O
1l"
1#
1B
b11 >
15
#68
05
#70
1q"
b1 <"
1c"
0("
1)"
0U
10"
1Y
1V
1T
1]
01"
0^
15"
1u
1]"
1O"
0E"
0Z"
0Y"
1p"
0n"
b100 O
0l"
1o"
1^"
0k"
0m"
0["
b100 ="
0\"
0/"
03"
02"
14"
1$
1C
0#
0B
b100 >
15
#72
05
#74
1s"
1e"
0q"
b10 <"
0c"
0'"
1*"
0y
1G"
1A"
b1 N
1r"
1$
1C
b1 ?
15
#76
05
#78
1q"
b11 <"
1c"
0*"
1y
1d"
1H"
0G"
0A"
1t"
b10 N
0r"
1$
1C
b10 ?
15
#80
05
#82
1w"
b1 ;"
1_"
0,"
1-"
0S
1b
1U
0p
0a
0V
1q"
b11 <"
1c"
1q
1o
0*"
0s
0y
1G"
1A"
b11 N
1r"
1%
1D
0$
0C
b11 ?
15
#84
05
#86
1y"
1a"
0w"
b10 ;"
0_"
0+"
1."
0w
1C"
b1 M
1x"
1%
1D
b1 @
15
#88
05
#90
0-"
1S
0w"
0X
0T
0_"
1_
0."
0`
1w
0C"
1`"
1N"
0x"
b10 M
1z"
0q"
0o"
0y"
0s"
0c"
b0 ="
0^"
b0 ;"
0a"
b0 <"
0e"
1}"
13"
1,"
1("
16"
b1 :"
1T"
0P
07"
0W
1&
1E
0%
0D
b10 @
15
#92
05
#94
0b
1p
1a
1X
0Q
1Z
0_
0q
0o
0Y
0)"
0]
0R
0\
1+"
1`
1'"
1s
1/"
1^
1y
1S"
1P"
0`"
0N"
0d"
0H"
0G"
0A"
0]"
0O"
b1 L
1~"
b0 M
0z"
0t"
b0 N
0r"
b0 O
0p"
1k"
0q"
0o"
0y"
0s"
1["
0c"
b1 ="
0^"
b0 ;"
0a"
b0 <"
0e"
0}"
03"
1("
06"
b0 :"
0T"
05"
1P
17"
1W
1#
1B
0&
0E
b0 >
b0 @
b0 ?
b1 A
15
#96
05
#98
1m"
1\"
0k"
b10 ="
0["
00"
13"
11"
0Z
04"
1R
1\
1Z"
1Y"
0S"
0P"
b1 O
1l"
b0 L
0~"
1#
1B
b0 A
b1 >
15
