Arbitros/arbitro1/Arbitro_1.vcd
$date
	Fri Nov 26 18:32:43 2021
$end
$version
	Icarus Verilog
$end
$timescale
	1ns
$end
$scope module BUF $end
$var wire 1 ! A $end
$var wire 1 " Y $end
$upscope $end
$scope module BancoPruebas $end
$var wire 1 # pop0 $end
$var wire 1 $ pop1 $end
$var wire 1 % pop2 $end
$var wire 1 & pop3 $end
$var wire 1 ' push0 $end
$var wire 1 ( push1 $end
$var wire 1 ) push2 $end
$var wire 1 * push3 $end
$var wire 1 + valid_3 $end
$var wire 1 , valid_2 $end
$var wire 1 - valid_1 $end
$var wire 1 . valid_0 $end
$var wire 4 / state [3:0] $end
$var wire 1 0 empty3 $end
$var wire 1 1 empty2 $end
$var wire 1 2 empty1 $end
$var wire 1 3 empty0 $end
$var wire 2 4 dest [1:0] $end
$var wire 1 5 clk $end
$var wire 1 6 almost_full3 $end
$var wire 1 7 almost_full2 $end
$var wire 1 8 almost_full1 $end
$var wire 1 9 almost_full0 $end
$scope module Probador $end
$var wire 1 # pop0 $end
$var wire 1 $ pop1 $end
$var wire 1 % pop2 $end
$var wire 1 & pop3 $end
$var wire 1 ' push0 $end
$var wire 1 ( push1 $end
$var wire 1 ) push2 $end
$var wire 1 * push3 $end
$var reg 1 9 almost_full0 $end
$var reg 1 8 almost_full1 $end
$var reg 1 7 almost_full2 $end
$var reg 1 6 almost_full3 $end
$var reg 1 5 clk $end
$var reg 2 : dest [1:0] $end
$var reg 1 3 empty0 $end
$var reg 1 2 empty1 $end
$var reg 1 1 empty2 $end
$var reg 1 0 empty3 $end
$var reg 4 ; state [3:0] $end
$var reg 1 . valid_0 $end
$var reg 1 - valid_1 $end
$var reg 1 , valid_2 $end
$var reg 1 + valid_3 $end
$upscope $end
$scope module arbitro_1_conductual $end
$var wire 1 9 almost_full0 $end
$var wire 1 8 almost_full1 $end
$var wire 1 7 almost_full2 $end
$var wire 1 6 almost_full3 $end
$var wire 1 5 clk $end
$var wire 2 < dest [1:0] $end
$var wire 1 3 empty0 $end
$var wire 1 2 empty1 $end
$var wire 1 1 empty2 $end
$var wire 1 0 empty3 $end
$var wire 4 = state [3:0] $end
$var wire 1 . valid_0 $end
$var wire 1 - valid_1 $end
$var wire 1 , valid_2 $end
$var wire 1 + valid_3 $end
$var reg 3 > contador0 [2:0] $end
$var reg 3 ? contador1 [2:0] $end
$var reg 3 @ contador2 [2:0] $end
$var reg 3 A contador3 [2:0] $end
$var reg 1 B pop0 $end
$var reg 1 C pop1 $end
$var reg 1 D pop2 $end
$var reg 1 E pop3 $end
$var reg 1 F push0 $end
$var reg 1 G push1 $end
$var reg 1 H push2 $end
$var reg 1 I push3 $end
$upscope $end
$scope module arbitro_1_estructural $end
$var wire 1 9 almost_full0 $end
$var wire 1 8 almost_full1 $end
$var wire 1 7 almost_full2 $end
$var wire 1 6 almost_full3 $end
$var wire 1 5 clk $end
$var wire 2 J dest [1:0] $end
$var wire 1 3 empty0 $end
$var wire 1 2 empty1 $end
$var wire 1 1 empty2 $end
$var wire 1 0 empty3 $end
$var wire 1 # pop0 $end
$var wire 1 $ pop1 $end
$var wire 1 % pop2 $end
$var wire 1 & pop3 $end
$var wire 1 ' push0 $end
$var wire 1 ( push1 $end
$var wire 1 ) push2 $end
$var wire 1 * push3 $end
$var wire 4 K state [3:0] $end
$var wire 1 . valid_0 $end
$var wire 1 - valid_1 $end
$var wire 1 , valid_2 $end
$var wire 1 + valid_3 $end
$var wire 3 L contador3 [2:0] $end
$var wire 3 M contador2 [2:0] $end
$var wire 3 N contador1 [2:0] $end
$var wire 3 O contador0 [2:0] $end
$var wire 1 P _085_ $end
$var wire 1 Q _084_ $end
$var wire 1 R _083_ $end
$var wire 1 S _082_ $end
$var wire 1 T _081_ $end
$var wire 1 U _080_ $end
$var wire 1 V _079_ $end
$var wire 1 W _078_ $end
$var wire 1 X _077_ $end
$var wire 1 Y _076_ $end
$var wire 1 Z _075_ $end
$var wire 1 [ _074_ $end
$var wire 1 \ _073_ $end
$var wire 1 ] _072_ $end
$var wire 1 ^ _071_ $end
$var wire 1 _ _070_ $end
$var wire 1 ` _069_ $end
$var wire 1 a _068_ $end
$var wire 1 b _067_ $end
$var wire 1 c _066_ $end
$var wire 1 d _065_ $end
$var wire 1 e _064_ $end
$var wire 1 f _063_ $end
$var wire 1 g _062_ $end
$var wire 1 h _061_ $end
$var wire 1 i _060_ $end
$var wire 1 j _059_ $end
$var wire 1 k _058_ $end
$var wire 1 l _057_ $end
$var wire 1 m _056_ $end
$var wire 1 n _055_ $end
$var wire 1 o _054_ $end
$var wire 1 p _053_ $end
$var wire 1 q _052_ $end
$var wire 1 r _051_ $end
$var wire 1 s _050_ $end
$var wire 1 t _049_ $end
$var wire 1 u _048_ $end
$var wire 1 v _047_ $end
$var wire 1 w _046_ $end
$var wire 1 x _045_ $end
$var wire 1 y _044_ $end
$var wire 1 z _043_ $end
$var wire 1 { _042_ $end
$var wire 1 | _041_ $end
$var wire 1 } _040_ $end
$var wire 1 ~ _039_ $end
$var wire 1 !" _038_ $end
$var wire 1 "" _037_ $end
$var wire 1 #" _036_ $end
$var wire 1 $" _035_ $end
$var wire 1 %" _034_ $end
$var wire 1 &" _033_ $end
$var wire 1 '" _032_ $end
$var wire 1 (" _031_ $end
$var wire 1 )" _030_ $end
$var wire 1 *" _029_ $end
$var wire 1 +" _028_ $end
$var wire 1 ," _027_ $end
$var wire 1 -" _026_ $end
$var wire 1 ." _025_ $end
$var wire 1 /" _024_ $end
$var wire 1 0" _023_ $end
$var wire 1 1" _022_ $end
$var wire 1 2" _021_ $end
$var wire 1 3" _020_ $end
$var wire 1 4" _019_ $end
$var wire 1 5" _018_ $end
$var wire 1 6" _017_ $end
$var wire 1 7" _016_ $end
$var wire 1 8" _015_ $end
$var wire 1 9" _014_ $end
$var wire 1 :" _013_ $end
$var wire 1 ;" _012_ $end
$var wire 1 <" _011_ $end
$var wire 1 =" _010_ $end
$var wire 1 >" _009_ $end
$var wire 1 ?" _008_ $end
$var wire 1 @" _007_ $end
$var wire 1 A" _006_ $end
$var wire 1 B" _005_ $end
$var wire 1 C" _004_ $end
$var wire 1 D" _003_ $end
$var wire 1 E" _002_ $end
$var wire 1 F" _001_ $end
$var wire 1 G" _000_ $end
$scope module _086_ $end
$var wire 1 H" A $end
$var wire 1 } Y $end
$upscope $end
$scope module _087_ $end
$var wire 1 I" A $end
$var wire 1 | Y $end
$upscope $end
$scope module _088_ $end
$var wire 1 J" A $end
$var wire 1 { Y $end
$upscope $end
$scope module _089_ $end
$var wire 1 K" A $end
$var wire 1 z Y $end
$upscope $end
$scope module _090_ $end
$var wire 1 L" A $end
$var wire 1 y Y $end
$upscope $end
$scope module _091_ $end
$var wire 1 M" A $end
$var wire 1 x Y $end
$upscope $end
$scope module _092_ $end
$var wire 1 N" A $end
$var wire 1 w Y $end
$upscope $end
$scope module _093_ $end
$var wire 1 O" A $end
$var wire 1 v Y $end
$upscope $end
$scope module _094_ $end
$var wire 1 , A $end
$var wire 1 u Y $end
$upscope $end
$scope module _095_ $end
$var wire 1 1 A $end
$var wire 1 t Y $end
$upscope $end
$scope module _096_ $end
$var wire 1 P" A $end
$var wire 1 Q" B $end
$var wire 1 s Y $end
$upscope $end
$scope module _097_ $end
$var wire 1 R" A $end
$var wire 1 2 B $end
$var wire 1 r Y $end
$upscope $end
$scope module _098_ $end
$var wire 1 z A $end
$var wire 1 s B $end
$var wire 1 q Y $end
$upscope $end
$scope module _099_ $end
$var wire 1 2 A $end
$var wire 1 q B $end
$var wire 1 p Y $end
$upscope $end
$scope module _100_ $end
$var wire 1 s A $end
$var wire 1 r B $end
$var wire 1 o Y $end
$upscope $end
$scope module _101_ $end
$var wire 1 9 A $end
$var wire 1 8 B $end
$var wire 1 n Y $end
$upscope $end
$scope module _102_ $end
$var wire 1 7 A $end
$var wire 1 6 B $end
$var wire 1 m Y $end
$upscope $end
$scope module _103_ $end
$var wire 1 n A $end
$var wire 1 m B $end
$var wire 1 l Y $end
$upscope $end
$scope module _104_ $end
$var wire 1 l A $end
$var wire 1 k Y $end
$upscope $end
$scope module _105_ $end
$var wire 1 x A $end
$var wire 1 S" B $end
$var wire 1 j Y $end
$upscope $end
$scope module _106_ $end
$var wire 1 T" A $end
$var wire 1 v B $end
$var wire 1 i Y $end
$upscope $end
$scope module _107_ $end
$var wire 1 U" A $end
$var wire 1 V" B $end
$var wire 1 h Y $end
$upscope $end
$scope module _108_ $end
$var wire 1 h A $end
$var wire 1 g Y $end
$upscope $end
$scope module _109_ $end
$var wire 1 i A $end
$var wire 1 g B $end
$var wire 1 f Y $end
$upscope $end
$scope module _110_ $end
$var wire 1 j A $end
$var wire 1 h B $end
$var wire 1 e Y $end
$upscope $end
$scope module _111_ $end
$var wire 1 l A $end
$var wire 1 f B $end
$var wire 1 d Y $end
$upscope $end
$scope module _112_ $end
$var wire 1 k A $end
$var wire 1 e B $end
$var wire 1 c Y $end
$upscope $end
$scope module _113_ $end
$var wire 1 p A $end
$var wire 1 c B $end
$var wire 1 b Y $end
$upscope $end
$scope module _114_ $end
$var wire 1 o A $end
$var wire 1 d B $end
$var wire 1 a Y $end
$upscope $end
$scope module _115_ $end
$var wire 1 W" A $end
$var wire 1 X" B $end
$var wire 1 ` Y $end
$upscope $end
$scope module _116_ $end
$var wire 1 t A $end
$var wire 1 ` B $end
$var wire 1 _ Y $end
$upscope $end
$scope module _117_ $end
$var wire 1 Y" A $end
$var wire 1 3 B $end
$var wire 1 ^ Y $end
$upscope $end
$scope module _118_ $end
$var wire 1 ^ A $end
$var wire 1 ] Y $end
$upscope $end
$scope module _119_ $end
$var wire 1 _ A $end
$var wire 1 ^ B $end
$var wire 1 \ Y $end
$upscope $end
$scope module _120_ $end
$var wire 1 b A $end
$var wire 1 \ B $end
$var wire 1 [ Y $end
$upscope $end
$scope module _121_ $end
$var wire 1 [ A $end
$var wire 1 % Y $end
$upscope $end
$scope module _122_ $end
$var wire 1 | A $end
$var wire 1 [ B $end
$var wire 1 Z Y $end
$upscope $end
$scope module _123_ $end
$var wire 1 Z" A $end
$var wire 1 Z B $end
$var wire 1 Y Y $end
$upscope $end
$scope module _124_ $end
$var wire 1 [" A $end
$var wire 1 \" B $end
$var wire 1 X Y $end
$upscope $end
$scope module _125_ $end
$var wire 1 ]" A $end
$var wire 1 0 B $end
$var wire 1 W Y $end
$upscope $end
$scope module _126_ $end
$var wire 1 X A $end
$var wire 1 W B $end
$var wire 1 V Y $end
$upscope $end
$scope module _127_ $end
$var wire 1 ^ A $end
$var wire 1 V B $end
$var wire 1 U Y $end
$upscope $end
$scope module _128_ $end
$var wire 1 _ A $end
$var wire 1 U B $end
$var wire 1 T Y $end
$upscope $end
$scope module _129_ $end
$var wire 1 a A $end
$var wire 1 T B $end
$var wire 1 & Y $end
$upscope $end
$scope module _130_ $end
$var wire 1 & A $end
$var wire 1 S Y $end
$upscope $end
$scope module _131_ $end
$var wire 1 f A $end
$var wire 1 & B $end
$var wire 1 R Y $end
$upscope $end
$scope module _132_ $end
$var wire 1 e A $end
$var wire 1 S B $end
$var wire 1 Q Y $end
$upscope $end
$scope module _133_ $end
$var wire 1 Y A $end
$var wire 1 Q B $end
$var wire 1 =" Y $end
$upscope $end
$scope module _134_ $end
$var wire 1 | A $end
$var wire 1 [ B $end
$var wire 1 P Y $end
$upscope $end
$scope module _135_ $end
$var wire 1 R A $end
$var wire 1 P B $end
$var wire 1 ;" Y $end
$upscope $end
$scope module _136_ $end
$var wire 1 Z A $end
$var wire 1 ;" B $end
$var wire 1 >" Y $end
$upscope $end
$scope module _137_ $end
$var wire 1 c A $end
$var wire 1 ] B $end
$var wire 1 # Y $end
$upscope $end
$scope module _138_ $end
$var wire 1 ^" A $end
$var wire 1 # B $end
$var wire 1 :" Y $end
$upscope $end
$scope module _139_ $end
$var wire 1 { A $end
$var wire 1 :" B $end
$var wire 1 9" Y $end
$upscope $end
$scope module _140_ $end
$var wire 1 _" A $end
$var wire 1 9" B $end
$var wire 1 8" Y $end
$upscope $end
$scope module _141_ $end
$var wire 1 Q A $end
$var wire 1 8" B $end
$var wire 1 ?" Y $end
$upscope $end
$scope module _142_ $end
$var wire 1 { A $end
$var wire 1 :" B $end
$var wire 1 7" Y $end
$upscope $end
$scope module _143_ $end
$var wire 1 R A $end
$var wire 1 7" B $end
$var wire 1 6" Y $end
$upscope $end
$scope module _144_ $end
$var wire 1 9" A $end
$var wire 1 6" B $end
$var wire 1 @" Y $end
$upscope $end
$scope module _145_ $end
$var wire 1 `" A $end
$var wire 1 # B $end
$var wire 1 5" Y $end
$upscope $end
$scope module _146_ $end
$var wire 1 5" A $end
$var wire 1 4" Y $end
$upscope $end
$scope module _147_ $end
$var wire 1 :" A $end
$var wire 1 4" B $end
$var wire 1 3" Y $end
$upscope $end
$scope module _148_ $end
$var wire 1 Q A $end
$var wire 1 3" B $end
$var wire 1 A" Y $end
$upscope $end
$scope module _149_ $end
$var wire 1 z A $end
$var wire 1 Q B $end
$var wire 1 B" Y $end
$upscope $end
$scope module _150_ $end
$var wire 1 o A $end
$var wire 1 ^ B $end
$var wire 1 2" Y $end
$upscope $end
$scope module _151_ $end
$var wire 1 d A $end
$var wire 1 2" B $end
$var wire 1 1" Y $end
$upscope $end
$scope module _152_ $end
$var wire 1 1" A $end
$var wire 1 $ Y $end
$upscope $end
$scope module _153_ $end
$var wire 1 y A $end
$var wire 1 1" B $end
$var wire 1 0" Y $end
$upscope $end
$scope module _154_ $end
$var wire 1 a" A $end
$var wire 1 0" B $end
$var wire 1 /" Y $end
$upscope $end
$scope module _155_ $end
$var wire 1 Q A $end
$var wire 1 /" B $end
$var wire 1 C" Y $end
$upscope $end
$scope module _156_ $end
$var wire 1 y A $end
$var wire 1 1" B $end
$var wire 1 ." Y $end
$upscope $end
$scope module _157_ $end
$var wire 1 R A $end
$var wire 1 ." B $end
$var wire 1 -" Y $end
$upscope $end
$scope module _158_ $end
$var wire 1 0" A $end
$var wire 1 -" B $end
$var wire 1 D" Y $end
$upscope $end
$scope module _159_ $end
$var wire 1 b" A $end
$var wire 1 e B $end
$var wire 1 ," Y $end
$upscope $end
$scope module _160_ $end
$var wire 1 # A $end
$var wire 1 ," B $end
$var wire 1 E" Y $end
$upscope $end
$scope module _161_ $end
$var wire 1 c" A $end
$var wire 1 e B $end
$var wire 1 +" Y $end
$upscope $end
$scope module _162_ $end
$var wire 1 # A $end
$var wire 1 +" B $end
$var wire 1 F" Y $end
$upscope $end
$scope module _163_ $end
$var wire 1 d" A $end
$var wire 1 e B $end
$var wire 1 *" Y $end
$upscope $end
$scope module _164_ $end
$var wire 1 # A $end
$var wire 1 *" B $end
$var wire 1 )" Y $end
$upscope $end
$scope module _165_ $end
$var wire 1 & A $end
$var wire 1 )" B $end
$var wire 1 (" Y $end
$upscope $end
$scope module _166_ $end
$var wire 1 (" A $end
$var wire 1 G" Y $end
$upscope $end
$scope module _167_ $end
$var wire 1 e" A $end
$var wire 1 f" B $end
$var wire 1 '" Y $end
$upscope $end
$scope module _168_ $end
$var wire 1 '" A $end
$var wire 1 &" Y $end
$upscope $end
$scope module _169_ $end
$var wire 1 + A $end
$var wire 1 &" B $end
$var wire 1 %" Y $end
$upscope $end
$scope module _170_ $end
$var wire 1 l A $end
$var wire 1 %" B $end
$var wire 1 * Y $end
$upscope $end
$scope module _171_ $end
$var wire 1 g" A $end
$var wire 1 l B $end
$var wire 1 $" Y $end
$upscope $end
$scope module _172_ $end
$var wire 1 h" A $end
$var wire 1 $" B $end
$var wire 1 #" Y $end
$upscope $end
$scope module _173_ $end
$var wire 1 u A $end
$var wire 1 #" B $end
$var wire 1 ) Y $end
$upscope $end
$scope module _174_ $end
$var wire 1 i" A $end
$var wire 1 w B $end
$var wire 1 "" Y $end
$upscope $end
$scope module _175_ $end
$var wire 1 - A $end
$var wire 1 "" B $end
$var wire 1 !" Y $end
$upscope $end
$scope module _176_ $end
$var wire 1 l A $end
$var wire 1 !" B $end
$var wire 1 ( Y $end
$upscope $end
$scope module _177_ $end
$var wire 1 . A $end
$var wire 1 $" B $end
$var wire 1 ~ Y $end
$upscope $end
$scope module _178_ $end
$var wire 1 j" A $end
$var wire 1 ~ B $end
$var wire 1 ' Y $end
$upscope $end
$scope module _179_ $end
$var wire 1 } A $end
$var wire 1 Q B $end
$var wire 1 <" Y $end
$upscope $end
$scope module _180_ $end
$var wire 1 5 C $end
$var wire 1 G" D $end
$var reg 1 k" Q $end
$upscope $end
$scope module _181_ $end
$var wire 1 5 C $end
$var wire 1 F" D $end
$var reg 1 l" Q $end
$upscope $end
$scope module _182_ $end
$var wire 1 5 C $end
$var wire 1 E" D $end
$var reg 1 m" Q $end
$upscope $end
$scope module _183_ $end
$var wire 1 5 C $end
$var wire 1 D" D $end
$var reg 1 n" Q $end
$upscope $end
$scope module _184_ $end
$var wire 1 5 C $end
$var wire 1 C" D $end
$var reg 1 o" Q $end
$upscope $end
$scope module _185_ $end
$var wire 1 5 C $end
$var wire 1 B" D $end
$var reg 1 p" Q $end
$upscope $end
$scope module _186_ $end
$var wire 1 5 C $end
$var wire 1 A" D $end
$var reg 1 q" Q $end
$upscope $end
$scope module _187_ $end
$var wire 1 5 C $end
$var wire 1 @" D $end
$var reg 1 r" Q $end
$upscope $end
$scope module _188_ $end
$var wire 1 5 C $end
$var wire 1 ?" D $end
$var reg 1 s" Q $end
$upscope $end
$scope module _189_ $end
$var wire 1 5 C $end
$var wire 1 >" D $end
$var reg 1 t" Q $end
$upscope $end
$scope module _190_ $end
$var wire 1 5 C $end
$var wire 1 =" D $end
$var reg 1 u" Q $end
$upscope $end
$scope module _191_ $end
$var wire 1 5 C $end
$var wire 1 <" D $end
$var reg 1 v" Q $end
$upscope $end
$upscope $end
$upscope $end
$scope module DFFSR $end
$var wire 1 w" C $end
$var wire 1 x" D $end
$var wire 1 y" R $end
$var wire 1 z" S $end
$var reg 1 {" Q $end
$upscope $end
$enddefinitions $end
#0
$dumpvars
x{"
zz"
zy"
zx"
zw"
xv"
xu"
xt"
xs"
xr"
xq"
xp"
xo"
xn"
xm"
xl"
xk"
0j"
0i"
0h"
0g"
0f"
0e"
xd"
xc"
xb"
xa"
x`"
x_"
x^"
x]"
x\"
x["
xZ"
xY"
xX"
xW"
0V"
0U"
1T"
0S"
xR"
xQ"
xP"
0O"
0N"
1M"
xL"
xK"
xJ"
xI"
xH"
0G"
0F"
0E"
0D"
0C"
0B"
0A"
0@"
0?"
0>"
0="
0<"
1;"
1:"
09"
x8"
x7"
16"
x5"
x4"
x3"
x2"
11"
00"
x/"
x."
1-"
1,"
1+"
1*"
0)"
1("
1'"
0&"
1%"
1$"
1#"
0""
1!"
x~
x}
x|
x{
xz
xy
0x
1w
1v
xu
1t
xs
xr
xq
xp
xo
1n
1m
0l
1k
1j
0i
1h
0g
1f
0e
0d
1c
0b
1a
x`
x_
x^
x]
x\
1[
0Z
xY
xX
xW
xV
xU
xT
1S
0R
1Q
xP
bx O
bx N
bx M
bx L
b1 K
b0 J
0I
0H
0G
0F
0E
0D
0C
0B
bx A
bx @
bx ?
bx >
b1 =
b0 <
b1 ;
b0 :
09
08
07
06
05
b0 4
03
02
01
00
b1 /
x.
x-
x,
x+
0*
0)
0(
x'
0&
0%
0$
0#
z"
z!
$end
#2
1p
1T
13"
0V
0q
0o
0\
0U
02"
0_
0."
04"
07"
0]
0P
1W
1X
1/"
1s
1r
15"
18"
1^
1Y
1`
1y
1z
1{
1|
1}
0d"
0]"
0c"
0\"
0b"
0["
0Q"
0L"
0a"
0P"
0R"
0K"
0`"
0^"
0J"
0_"
0Y"
0I"
0Z"
0X"
0W"
0H"
b0 A
b0 @
b0 ?
b0 >
0k"
0l"
b0 L
0m"
0n"
0o"
b0 N
0p"
0q"
0r"
b0 O
0s"
0t"
0u"
b0 M
0v"
15
#4
05
#6
1A"
0c
0Q
1d
1R
03"
1e
0f
14"
05"
0j
1i
1x
0v
1#
1B
0M"
1O"
1S"
0T"
b10 /
b10 ;
b10 =
b10 K
15
#8
05
#10
1@"
06"
0A"
17"
13"
1'
0:"
0~
1`"
1^"
1F
b1 O
1q"
1.
1#
1B
b1 >
15
#12
05
#14
1A"
03"
1:"
0{
1J"
0`"
0^"
1r"
b10 O
0q"
1#
1B
b10 >
15
#16
05
#18
1?"
08"
0@"
0A"
0!"
19"
13"
1~
1""
0:"
0$"
0w
1`"
1^"
1(
1G
0'
0F
1N"
1f"
1g"
b11 O
1q"
1-
b1 4
b1 :
b1 <
b1 J
1#
1B
b11 >
15
#20
05
#22
1D"
0-"
1."
01"
16"
1\
1U
12"
1]
07"
04"
0^
15"
1{
1_"
1Y"
0J"
0`"
0^"
1s"
0r"
b100 O
0q"
1?"
08"
0@"
0A"
09"
13"
1:"
1$
1C
0#
0B
b100 >
15
#24
05
#26
1C"
0/"
0D"
10"
0y
1Q"
1L"
0u
1H
b1 N
1n"
1,
09
1)
0#"
0~
1!"
1$"
0""
1w
1$
1C
0(
0G
0N"
1e"
0f"
0g"
1h"
1i"
1j"
b1 ?
b10 4
b10 :
b10 <
b10 J
15
#28
05
#30
1D"
00"
1y
1a"
1P"
0Q"
0L"
1o"
b10 N
0n"
1$
1C
b10 ?
15
#32
05
#34
1>"
0;"
1P
0[
1b
11"
0p
0a
02"
1D"
1q
1o
00"
0s
0y
1Q"
1L"
1I
b11 N
1n"
1+
09
1*
0%"
1#"
1~
1&"
0'"
0$"
0w
1%
1D
0$
0C
0)
0H
1N"
1f"
1g"
b11 ?
b11 4
b11 :
b11 <
b11 J
15
#36
05
#38
1="
0Y
0>"
1Z
0|
1I"
b1 M
1t"
1%
1D
b1 @
15
#40
05
#42
0P
1[
0b
1a
0\
0T
1c
0>"
0d
1_
0k
0Z
1l
0`
1|
0n
0I"
1Z"
1X"
0*
0I
0t"
b10 M
1u"
19
1D"
1="
1?"
1C"
1;"
0-"
0Q
0G"
1R
1("
1S
0&
0E
0%
0D
b10 @
15
#44
05
#46
15
#48
05
#50
1b
0a
0D"
0c
0="
0?"
0C"
1d
1-"
1k
1Q
1G"
0l
0R
0("
0S
1n
1*
1I
1&
1E
09
15
#52
05
#54
0b
1T
1p
1a
0_
0U
0q
0o
0)"
1V
0]
0."
1Y
1`
18"
1^
1/"
1s
0*"
0W
1y
0Z"
0X"
0_"
0Y"
0a"
0P"
0Q"
0L"
1d"
1]"
b0 M
0u"
b0 O
0s"
0o"
b0 N
0n"
b1 L
1k"
1A"
0D"
03"
0="
0?"
0C"
1-"
14"
0Q
0G"
05"
1R
1("
1S
1#
1B
0&
0E
b0 >
b0 @
b0 ?
b1 A
15
#56
05
#58
1@"
06"
0A"
0V
17"
13"
1*"
1W
0:"
0d"
0]"
1`"
1^"
b0 L
0k"
b1 O
1q"
1#
1B
b0 A
b1 >
15
#60
05
#62
1A"
03"
1:"
0{
1J"
0`"
0^"
1r"
b10 O
0q"
1#
1B
b10 >
15
#64
05
#66
1?"
08"
0@"
0A"
19"
13"
0:"
1`"
1^"
b11 O
1q"
1#
1B
b11 >
15
#68
05
#70
1D"
0-"
1."
01"
16"
1\
1U
12"
1]
07"
04"
0^
15"
1{
1_"
1Y"
0J"
0`"
0^"
1s"
0r"
b100 O
0q"
1?"
08"
0@"
0A"
09"
13"
1:"
1$
1C
0#
0B
b100 >
15
#72
05
#74
1C"
0/"
0D"
10"
0y
1Q"
1L"
b1 N
1n"
1$
1C
b1 ?
15
#76
05
#78
1D"
00"
1y
1a"
1P"
0Q"
0L"
1o"
b10 N
0n"
1$
1C
b10 ?
15
#80
05
#82
1>"
0;"
1P
0[
1b
11"
0p
0a
02"
1D"
1q
1o
00"
0s
0y
1Q"
1L"
b11 N
1n"
1%
1D
0$
0C
b11 ?
15
#84
05
#86
1="
0Y
0>"
1Z
0|
1I"
b1 M
1t"
1%
1D
b1 @
15
#88
05
#90
0P
1[
0\
0T
0>"
1_
0Z
0`
1|
0I"
1Z"
1X"
0t"
b10 M
1u"
0D"
0="
0?"
0C"
1;"
1-"
1Q
1G"
0R
0("
0S
1&
1E
0%
0D
b10 @
15
#92
05
#94
0b
1T
1p
1a
0_
0U
0q
0o
0)"
1V
0]
0."
1Y
1`
18"
1^
1/"
1s
0*"
0W
1y
0Z"
0X"
0_"
0Y"
0a"
0P"
0Q"
0L"
1d"
1]"
b0 M
0u"
b0 O
0s"
0o"
b0 N
0n"
b1 L
1k"
1A"
0D"
03"
0="
0?"
0C"
1-"
14"
0Q
0G"
05"
1R
1("
1S
1#
1B
0&
0E
b0 >
b0 @
b0 ?
b1 A
15
#96
05
#98
1@"
06"
0A"
0V
17"
13"
1*"
1W
0:"
0d"
0]"
1`"
1^"
b0 L
0k"
b1 O
1q"
1#
1B
b0 A
b1 >
15
